************ Training con Dropout e 0 hiden layer LSTM bidirezionali.*******************


Model accuracy [0.2567287763083203, 0.4886128317495311, 0.5465838546338289, 0.5776397573528329, 0.6086956499526219, 0.6376811613947708, 0.7225672904995905, 0.790890263844721, 0.8178053798142427, 0.867494823646348, 0.8881987528277727, 0.9275362273180707, 0.9565217408581056, 0.9689441032044389, 0.9772256686820747, 0.989648033126294, 0.9937888198757764, 0.9855072421810395, 1.0, 0.9979296045273728, 1.0, 1.0, 1.0, 1.0, 1.0, 1.0, 1.0, 1.0, 1.0, 1.0, 1.0, 1.0, 1.0, 1.0, 1.0, 1.0, 1.0, 1.0, 1.0, 1.0, 1.0, 1.0, 1.0, 1.0, 1.0, 1.0, 1.0, 1.0, 1.0, 1.0, 1.0, 1.0, 1.0, 1.0, 1.0, 1.0, 1.0, 1.0, 1.0, 1.0, 1.0, 1.0]

Validation accuracy [0.2571428716182709, 0.3142857253551483, 0.34285715222358704, 0.30000001192092896, 0.3142857253551483, 0.3857142925262451, 0.4571428596973419, 0.5, 0.5285714268684387, 0.5, 0.5428571701049805, 0.5714285969734192, 0.6000000238418579, 0.6142857074737549, 0.5714285969734192, 0.5428571701049805, 0.5571428537368774, 0.5714285969734192, 0.5857142806053162, 0.6142857074737549, 0.6142857074737549, 0.6285714507102966, 0.6285714507102966, 0.6285714507102966, 0.5857142806053162, 0.5857142806053162, 0.5714285969734192, 0.5714285969734192, 0.6000000238418579, 0.6142857074737549, 0.5857142806053162, 0.5857142806053162, 0.5857142806053162, 0.5857142806053162, 0.5857142806053162, 0.5857142806053162, 0.5857142806053162, 0.5857142806053162, 0.5857142806053162, 0.5857142806053162, 0.5857142806053162, 0.5857142806053162, 0.5857142806053162, 0.5857142806053162, 0.5857142806053162, 0.5857142806053162, 0.5857142806053162, 0.5857142806053162, 0.5857142806053162, 0.5857142806053162, 0.5857142806053162, 0.5857142806053162, 0.5857142806053162, 0.5857142806053162, 0.5857142806053162, 0.5857142806053162, 0.5857142806053162, 0.5857142806053162, 0.5857142806053162, 0.5857142806053162, 0.5857142806053162, 0.5857142806053162]

Model loss [1.9076614747629896, 1.782401528664504, 1.6552619761314944, 1.5011352428985185, 1.32499461119713, 1.1559630773082283, 0.9886111417172118, 0.8291923238377147, 0.6829360298982071, 0.5433741730192433, 0.431810141165064, 0.3193992741606497, 0.23731162459213542, 0.18115772698730168, 0.13067154486048543, 0.09461421619784512, 0.07391730632717812, 0.08339355151722397, 0.0572715076168625, 0.04469999634732124, 0.03879160813478209, 0.03015409768645808, 0.025388906152598853, 0.02134846960335168, 0.01658256299886274, 0.013798692757283062, 0.012233624003411079, 0.010727453770551745, 0.009471440412042427, 0.008514404960177207, 0.0077460821251352134, 0.007094959067045778, 0.006567780750824859, 0.006111482939225916, 0.005714280118174681, 0.0053603907624803345, 0.005069442371033734, 0.004807408972340587, 0.004575013034585593, 0.0043591724913065975, 0.00416684295118287, 0.003995250215885031, 0.003832060058927067, 0.003684460445293698, 0.0035435684434066894, 0.0034161305284478526, 0.003295390500820109, 0.003181267843059193, 0.003074641540014102, 0.0029756695699278365, 0.00288066562211168, 0.0027919734324912846, 0.002704428270262498, 0.0026250005445171217, 0.002547955270625234, 0.002476114795136402, 0.002408222487682234, 0.0023434753683983785, 0.0022807244223968645, 0.002220530092319007, 0.0021637751389194594, 0.0021091202996077313]

Validation loss [1.890411138534546, 1.8264237642288208, 1.7551425695419312, 1.6778013706207275, 1.5973238945007324, 1.4837068319320679, 1.361311912536621, 1.2365295886993408, 1.1566760540008545, 1.1707289218902588, 1.1387537717819214, 1.1279805898666382, 1.16069757938385, 1.1940500736236572, 1.2391383647918701, 1.2094537019729614, 1.3740228414535522, 1.4734241962432861, 1.3665152788162231, 1.3348042964935303, 1.297220230102539, 1.3676239252090454, 1.4459657669067383, 1.4758429527282715, 1.4929847717285156, 1.5340596437454224, 1.577023983001709, 1.6237953901290894, 1.653672456741333, 1.6679515838623047, 1.6859352588653564, 1.7081091403961182, 1.7305063009262085, 1.7506498098373413, 1.7700004577636719, 1.7877074480056763, 1.8082085847854614, 1.8299261331558228, 1.855279564857483, 1.8753843307495117, 1.8936957120895386, 1.911285400390625, 1.9259473085403442, 1.9373931884765625, 1.9449173212051392, 1.9522674083709717, 1.9605039358139038, 1.9662786722183228, 1.9739172458648682, 1.9792340993881226, 1.9869797229766846, 1.9941831827163696, 2.0013391971588135, 2.011223077774048, 2.022357940673828, 2.0343828201293945, 2.0437443256378174, 2.058391571044922, 2.066209316253662, 2.0746572017669678, 2.083130359649658, 2.091932773590088]

Text accuracy 0.5762711866090526
Test loss 2.26578092709773


************ Training con Dropout e 2 hiden layer LSTM bidirezionali.*******************


Model accuracy [0.1842650106913308, 0.24844720530830802, 0.30227743456329126, 0.32298136448514636, 0.33540372855915046, 0.35403726930203644, 0.3871635592872312, 0.41614907091448766, 0.42443064058789554, 0.42028985402352076, 0.4658385101806056, 0.46376811489308595, 0.5113871605993551, 0.5175983466470216, 0.5258799163204296, 0.5258799163204296, 0.5548654260349076, 0.571428572662622, 0.5610766035059224, 0.5817805336128851, 0.6086956524207232, 0.5797101440637008, 0.6149068356300733, 0.61283643805956, 0.6542443122182574, 0.6749482442379985, 0.6853002114819197, 0.6625258742405514, 0.6397515523014108, 0.6977225713601517, 0.6832298160092924, 0.7225672859336032, 0.7163561019838226, 0.7432712217789013, 0.7349896507480377, 0.7308488636283401, 0.743271223506572, 0.7515527918225243, 0.7494824064691121, 0.7432712217789013, 0.7660455433478267, 0.8074534209618657, 0.7515527973757521, 0.7867494816612259, 0.8136646014563045, 0.7929606656110064, 0.7805382990689012, 0.8157349868097167, 0.799171841539458, 0.7929606572194623, 0.8240165603086815, 0.8033126324847124, 0.8302277484542341, 0.8219461707594973, 0.8281573529816069, 0.81987577528687, 0.8405797115023832, 0.840579705208725, 0.8343685331058305, 0.8447204936858783, 0.8674948271016897, 0.8592132536027249, 0.8302277421605759, 0.8654244319992777, 0.8633540344287643, 0.8509316822016462, 0.834368524344071, 0.8488612846311329, 0.8447204957837644, 0.8902691483003999, 0.8778467943456109, 0.8799171835245799, 0.8757764030687557, 0.8944099375179836, 0.9047619040214744, 0.8654244337269484, 0.8964803347182817, 0.9068323015919877, 0.9109730904393561, 0.9171842625422507, 0.9151138691675096, 0.908902689043286, 0.8964803305225096, 0.8861283657466896, 0.88819875739376, 0.9130434820864265, 0.9047619082172464, 0.9151138771888385, 0.8985507298206937, 0.9275362336117289, 0.8964803266969527, 0.9192546618404349, 0.92960662698647, 0.9068322952983295, 0.9254658339433295, 0.9254658423348737, 0.9233954506878034, 0.921325055215176, 0.9275362315138428, 0.9378882004854349, 0.9420289851370311, 0.9337474158338385, 0.92960662698647, 0.9399585896644039, 0.9316770245569833, 0.9440993806096585, 0.9399585900346191, 0.9482401631633688, 0.9399585980559482, 0.9316770245569833, 0.9358178092085797, 0.9440993746862155, 0.9316770245569833, 0.9585921342328468, 0.9482401652612548]

Validation accuracy [0.30000001192092896, 0.22857142984867096, 0.30000001192092896, 0.2857142984867096, 0.2857142984867096, 0.22857142984867096, 0.30000001192092896, 0.34285715222358704, 0.3857142925262451, 0.41428571939468384, 0.3857142925262451, 0.37142857909202576, 0.3857142925262451, 0.41428571939468384, 0.4285714328289032, 0.4285714328289032, 0.44285714626312256, 0.4571428596973419, 0.4571428596973419, 0.4285714328289032, 0.44285714626312256, 0.4714285731315613, 0.4285714328289032, 0.44285714626312256, 0.5, 0.5, 0.4714285731315613, 0.48571428656578064, 0.5142857432365417, 0.48571428656578064, 0.5285714268684387, 0.4714285731315613, 0.5, 0.5428571701049805, 0.5142857432365417, 0.5571428537368774, 0.5571428537368774, 0.5714285969734192, 0.5857142806053162, 0.5714285969734192, 0.5571428537368774, 0.5714285969734192, 0.6000000238418579, 0.5714285969734192, 0.5714285969734192, 0.5285714268684387, 0.5428571701049805, 0.6000000238418579, 0.6000000238418579, 0.6142857074737549, 0.5857142806053162, 0.5714285969734192, 0.5857142806053162, 0.5857142806053162, 0.6142857074737549, 0.6285714507102966, 0.6142857074737549, 0.6428571343421936, 0.6571428775787354, 0.6285714507102966, 0.5714285969734192, 0.6285714507102966, 0.6142857074737549, 0.6714285612106323, 0.6571428775787354, 0.6428571343421936, 0.6142857074737549, 0.6142857074737549, 0.6142857074737549, 0.6142857074737549, 0.6142857074737549, 0.6285714507102966, 0.6142857074737549, 0.6285714507102966, 0.6142857074737549, 0.6714285612106323, 0.6428571343421936, 0.6571428775787354, 0.6428571343421936, 0.6428571343421936, 0.6571428775787354, 0.6000000238418579, 0.6285714507102966, 0.6428571343421936, 0.6428571343421936, 0.6285714507102966, 0.6285714507102966, 0.6285714507102966, 0.6142857074737549, 0.6285714507102966, 0.6142857074737549, 0.6428571343421936, 0.6428571343421936, 0.6428571343421936, 0.6428571343421936, 0.6285714507102966, 0.6142857074737549, 0.6142857074737549, 0.6285714507102966, 0.6285714507102966, 0.6142857074737549, 0.6000000238418579, 0.6142857074737549, 0.6571428775787354, 0.6714285612106323, 0.6571428775787354, 0.6571428775787354, 0.6428571343421936, 0.6285714507102966, 0.6142857074737549, 0.6142857074737549, 0.6142857074737549, 0.6428571343421936, 0.6571428775787354, 0.6571428775787354]

Model loss [1.9386801458046796, 1.9101150275263974, 1.8662655543589937, 1.783129748843965, 1.6828327929257854, 1.6275019969012179, 1.5668638280706624, 1.5077778868546892, 1.4765087566020325, 1.398189061917133, 1.326283572129828, 1.3158872655706624, 1.2562342655091059, 1.2287473456459757, 1.2453809051039797, 1.2041660673129633, 1.1394190410649554, 1.0916377301048295, 1.112000531044559, 1.0422444919868532, 1.0161150133634453, 1.0493214258742876, 0.9922021054826662, 0.9899945612032715, 0.9063981202571783, 0.9084031451069297, 0.89701669606116, 0.8519189476226428, 0.9020795697504442, 0.8133189979300489, 0.8452917869293418, 0.7631682373475337, 0.7880223152800376, 0.7625253502873407, 0.7347535529245254, 0.7318254335326437, 0.7286561906461143, 0.7294807147782288, 0.7058434159365746, 0.6830073296406748, 0.6590657642662648, 0.5722707793826148, 0.6728313968788763, 0.6196119782223711, 0.5704846889952941, 0.5835148099786747, 0.5644175083247277, 0.5446413140242637, 0.5397752592529076, 0.5597728690745668, 0.5046971061461707, 0.5370204812744883, 0.5092172095741051, 0.4958236954226997, 0.47634682158012076, 0.5321190231335089, 0.4478241369961211, 0.45764853816101514, 0.48686483527069013, 0.4398010600180853, 0.41976220958227944, 0.43043264074108367, 0.43076530635727117, 0.38954819667906987, 0.3987354225870492, 0.4159649304474856, 0.4787578585231773, 0.4105815056318082, 0.42369555772955125, 0.34580910884568905, 0.34185336681379785, 0.33674763602746444, 0.35746524009398545, 0.2996085255906202, 0.2778100495382866, 0.3633658950743468, 0.2890898977747615, 0.27350347388851964, 0.28110868719793997, 0.2845983445089056, 0.2309442688836321, 0.2639196703276032, 0.2768182625558312, 0.3115108540092689, 0.34631167654541956, 0.25103583287131465, 0.27978353952028734, 0.2825929998857881, 0.27367558581735285, 0.22429500183950546, 0.27644897710462535, 0.22012169285837416, 0.2279381440107867, 0.25409882409232004, 0.20009968523900207, 0.2206078763457312, 0.25069526498115335, 0.22271562338368986, 0.21570865825343083, 0.19509306451301892, 0.16668849149969547, 0.21750039581062877, 0.18535450239729437, 0.17296917906212264, 0.19129261471655057, 0.17957115324511044, 0.1710781066931059, 0.1354579483438476, 0.18631408207781813, 0.2010924442214255, 0.19747361263132984, 0.1800281314129168, 0.1774347174457635, 0.13950322179690652, 0.17165467615083138]

Validation loss [1.912469506263733, 1.881965160369873, 1.838226556777954, 1.8182734251022339, 1.864600658416748, 1.8085098266601562, 1.7374147176742554, 1.6887757778167725, 1.642347812652588, 1.5905466079711914, 1.581416368484497, 1.5557464361190796, 1.5233696699142456, 1.4655417203903198, 1.4831337928771973, 1.398386001586914, 1.403245449066162, 1.4228878021240234, 1.373496413230896, 1.4466807842254639, 1.4802327156066895, 1.4271483421325684, 1.471640944480896, 1.4625440835952759, 1.362877368927002, 1.4268856048583984, 1.4992462396621704, 1.4371050596237183, 1.3444935083389282, 1.3936290740966797, 1.3643940687179565, 1.319216251373291, 1.3265575170516968, 1.3667247295379639, 1.4066202640533447, 1.3691600561141968, 1.3893159627914429, 1.3281077146530151, 1.2678654193878174, 1.24611234664917, 1.2733172178268433, 1.2700715065002441, 1.253373146057129, 1.2725919485092163, 1.2637507915496826, 1.3108760118484497, 1.266109585762024, 1.2489770650863647, 1.2921591997146606, 1.2591495513916016, 1.2390539646148682, 1.286007285118103, 1.2619909048080444, 1.2377406358718872, 1.2132035493850708, 1.249773383140564, 1.2865997552871704, 1.2537271976470947, 1.204472303390503, 1.2048639059066772, 1.2942867279052734, 1.2620151042938232, 1.1586560010910034, 1.1254829168319702, 1.1250977516174316, 1.1744251251220703, 1.257252812385559, 1.3000640869140625, 1.2902936935424805, 1.3004847764968872, 1.2395561933517456, 1.217623233795166, 1.3030537366867065, 1.3175463676452637, 1.3130128383636475, 1.276567816734314, 1.2601109743118286, 1.3911168575286865, 1.3512641191482544, 1.2899658679962158, 1.3277822732925415, 1.3573296070098877, 1.3522543907165527, 1.3423808813095093, 1.3717293739318848, 1.4618884325027466, 1.4414302110671997, 1.3568252325057983, 1.3441015481948853, 1.3807079792022705, 1.3862087726593018, 1.402618646621704, 1.4249024391174316, 1.4371803998947144, 1.3945344686508179, 1.454459547996521, 1.523127555847168, 1.5342975854873657, 1.4371551275253296, 1.3804618120193481, 1.3828619718551636, 1.45919668674469, 1.534835696220398, 1.4760957956314087, 1.4168277978897095, 1.4239366054534912, 1.4394277334213257, 1.4832854270935059, 1.5730887651443481, 1.6555262804031372, 1.644687294960022, 1.6259784698486328, 1.5903652906417847, 1.4829535484313965, 1.4766159057617188]

Text accuracy 0.6271186467617919
Test loss 1.6608497422967254


************ Training con Dropout e 4 hiden layer LSTM bidirezionali.*******************


Model accuracy [0.12836438978927722, 0.17184264893117157, 0.18426501164772002, 0.22360248385502438, 0.2422360266957964, 0.2877846771145459, 0.28778468056988765, 0.27950310306025833, 0.3126293997093264, 0.31677018837158727, 0.33540372874425806, 0.333333333641846, 0.38302277272285634, 0.38716355947233877, 0.39544513716707563, 0.39958592181867203, 0.4223602506684961, 0.4575569345837548, 0.44927535725923307, 0.4306418228100052, 0.4679089014574608, 0.43271221390175274, 0.47204968783672796, 0.4927536240522412, 0.45134575865530324, 0.5072463757626512, 0.4865424404726759, 0.4699792993981893, 0.49068323259027846, 0.4741200813965768, 0.5238095250435745, 0.5217391253751751, 0.5258799201459865, 0.5258799184183156, 0.538302274841206, 0.4906832283945064, 0.5217391295709471, 0.5341614859938375, 0.5548654218391356, 0.548654245910684, 0.5569358131159907, 0.548654241714912, 0.5507246371875392, 0.5776397548847317, 0.5714285751307233, 0.5548654281327937, 0.5817805402767584, 0.5693581813857669, 0.5693581817559821, 0.5942028938613323, 0.579710144433916, 0.6004140743557711, 0.6024844694581831, 0.6459627289702927, 0.5921325106058062, 0.6604554881467088, 0.6252588004058932, 0.6004140785515432, 0.6335403763729593, 0.6252588011463236, 0.6024844757518413, 0.6066252562076655, 0.6335403784708453, 0.6169772217239159, 0.6314699791726612, 0.629399579874477, 0.6625258776958931, 0.6625258755980071, 0.6521739150179593, 0.6480331317238186, 0.662525879423564, 0.6459627289702927, 0.6853002093840337, 0.6418219439484811, 0.6749482379443403, 0.6563147055929985, 0.6790890267917088, 0.6873705943672307, 0.7060041372080027, 0.6749482400422264, 0.6956521737896384, 0.679089031357696, 0.6977225717303669, 0.7101449281532571, 0.6749482379443403, 0.6977225727176074, 0.722567281737831, 0.6956521703342967, 0.7142857145325244, 0.7163561103753668, 0.7556935782017915, 0.7370600378291207, 0.7287784622322698, 0.701863347990419, 0.7122153194301123, 0.7474120140816114, 0.7349896444543795, 0.7246376793083443, 0.7432712263448885, 0.7432712242470024, 0.7494823980775679, 0.7619047625217872, 0.7474120047028268, 0.7329192594711825, 0.7515527994736381, 0.7681159468417829, 0.7722567234720502, 0.7619047663473442, 0.7598343687768309, 0.7867494833888968, 0.7743271168467915, 0.788819874665752, 0.770186333922866, 0.7826086903457563, 0.7950310610836337, 0.7805382966007999, 0.8219461707594973, 0.7826086941713132, 0.8033126303868264, 0.7971014481647167, 0.8405797132300541, 0.8074534192341949, 0.8012422331865283, 0.8053830191955803, 0.8198757770145408, 0.8385093114637687, 0.8074534146682076, 0.8343685306377292, 0.8095238143366069, 0.8281573529816069, 0.8219461648360543, 0.8550724584616983, 0.7826086924436423, 0.8571428623258698, 0.8260869515855367, 0.832298135165102, 0.8633540365266503, 0.8405797132300541, 0.8240165683300105, 0.8385093135616547, 0.8447204919582074, 0.8260869596068656, 0.8467908853329487, 0.8530020713806152, 0.8674948253740188, 0.8550724668532425, 0.8530020671848432, 0.871635613851172, 0.8509316717122158]

Validation accuracy [0.15714286267757416, 0.2142857164144516, 0.20000000298023224, 0.18571428954601288, 0.20000000298023224, 0.18571428954601288, 0.17142857611179352, 0.18571428954601288, 0.24285714328289032, 0.27142858505249023, 0.3142857253551483, 0.3571428656578064, 0.34285715222358704, 0.37142857909202576, 0.3571428656578064, 0.41428571939468384, 0.4000000059604645, 0.3857142925262451, 0.3857142925262451, 0.4285714328289032, 0.4000000059604645, 0.4285714328289032, 0.3857142925262451, 0.44285714626312256, 0.44285714626312256, 0.4000000059604645, 0.4571428596973419, 0.5, 0.44285714626312256, 0.4285714328289032, 0.41428571939468384, 0.3857142925262451, 0.4285714328289032, 0.37142857909202576, 0.41428571939468384, 0.44285714626312256, 0.48571428656578064, 0.44285714626312256, 0.37142857909202576, 0.3571428656578064, 0.4714285731315613, 0.4714285731315613, 0.41428571939468384, 0.44285714626312256, 0.44285714626312256, 0.4571428596973419, 0.48571428656578064, 0.4571428596973419, 0.44285714626312256, 0.44285714626312256, 0.48571428656578064, 0.5142857432365417, 0.48571428656578064, 0.5285714268684387, 0.4571428596973419, 0.44285714626312256, 0.48571428656578064, 0.48571428656578064, 0.5285714268684387, 0.5, 0.4571428596973419, 0.4571428596973419, 0.4714285731315613, 0.5, 0.5428571701049805, 0.5285714268684387, 0.5142857432365417, 0.48571428656578064, 0.48571428656578064, 0.4714285731315613, 0.48571428656578064, 0.5142857432365417, 0.5285714268684387, 0.5285714268684387, 0.4714285731315613, 0.5285714268684387, 0.5, 0.48571428656578064, 0.48571428656578064, 0.44285714626312256, 0.4714285731315613, 0.48571428656578064, 0.5142857432365417, 0.5428571701049805, 0.5, 0.5, 0.5142857432365417, 0.5428571701049805, 0.5142857432365417, 0.48571428656578064, 0.5285714268684387, 0.5, 0.5571428537368774, 0.5, 0.5428571701049805, 0.5285714268684387, 0.5142857432365417, 0.5571428537368774, 0.5571428537368774, 0.5428571701049805, 0.5285714268684387, 0.5142857432365417, 0.5428571701049805, 0.4714285731315613, 0.5, 0.4571428596973419, 0.4714285731315613, 0.5571428537368774, 0.48571428656578064, 0.4714285731315613, 0.5142857432365417, 0.5285714268684387, 0.5285714268684387, 0.5142857432365417, 0.4571428596973419, 0.5142857432365417, 0.5857142806053162, 0.5714285969734192, 0.5285714268684387, 0.5142857432365417, 0.5285714268684387, 0.5428571701049805, 0.5285714268684387, 0.5285714268684387, 0.5428571701049805, 0.5428571701049805, 0.5285714268684387, 0.5428571701049805, 0.5571428537368774, 0.5714285969734192, 0.5714285969734192, 0.5571428537368774, 0.5142857432365417, 0.5285714268684387, 0.5714285969734192, 0.5285714268684387, 0.5, 0.5, 0.5, 0.5571428537368774, 0.5571428537368774, 0.5714285969734192, 0.5857142806053162, 0.5571428537368774, 0.5714285969734192, 0.5714285969734192, 0.5857142806053162, 0.5142857432365417, 0.5285714268684387]

Model loss [1.9493724798810654, 1.9379010249862514, 1.9348233659321723, 1.9251533359227466, 1.8908503381361872, 1.854194176369819, 1.7686591829572404, 1.727283601681885, 1.669005717056385, 1.6472963736417625, 1.6137243279759188, 1.5851047962101843, 1.5456094773906606, 1.540660585922731, 1.486871754160579, 1.436506033684156, 1.4078657577743687, 1.3729764603186345, 1.3480998534346713, 1.3270036917542325, 1.2765292220480942, 1.297345491176313, 1.3242007007756835, 1.2435831836044913, 1.2443726739034395, 1.1890123700009616, 1.1825643439717421, 1.1853431648349169, 1.2036477729647304, 1.1835046342687825, 1.1679533986571413, 1.141524006367717, 1.1648801703383957, 1.1651906357542081, 1.1023705469648784, 1.1224022039962358, 1.118542408597642, 1.113477945574569, 1.0497002715156192, 1.1134871994733317, 1.0972998954247737, 1.075489372446917, 1.017024586906591, 0.9978747498668252, 1.0093433258449562, 1.0436045660735658, 1.0181867659215353, 1.0031317511947506, 0.9847085446304416, 0.9919711914121735, 0.970676300811965, 0.955698211247383, 0.9823672657921201, 0.9360640442642859, 0.9580072242280712, 0.8813002266252016, 0.932050177029201, 0.9152893180926147, 0.909408896606161, 0.904652342046023, 0.9230045238143415, 0.9022810557861012, 0.8755278940279785, 0.8958688117949365, 0.86476332948815, 0.8911768937209625, 0.8611870549973988, 0.8095120844386873, 0.8359603908985052, 0.812384043174254, 0.8140382605063002, 0.8346359223806092, 0.777586789481635, 0.8362751724063486, 0.8185481305694975, 0.8253319931079636, 0.7558356280405822, 0.779136684246932, 0.7368073696675508, 0.7840896710352374, 0.7775833222930228, 0.7958725518074589, 0.7642742686636946, 0.7255004532095315, 0.794824172744593, 0.7565673614387434, 0.7373276489862004, 0.7333417132527685, 0.6866519865782365, 0.7332204398901566, 0.6621445835747334, 0.6665832301597912, 0.6652954994521526, 0.7151951891048107, 0.7306970111084774, 0.6746153116966627, 0.6685553889096894, 0.6492801459186072, 0.6402518177871626, 0.6410862229625631, 0.6521327789278998, 0.6432705636350264, 0.6214284376081226, 0.6342332474193217, 0.6339098010250747, 0.6083267769211321, 0.5960944534335324, 0.6080671230458324, 0.619460337897512, 0.5373322325710431, 0.58805423296263, 0.5834699850645124, 0.5797745536079565, 0.5609592793520933, 0.5651855951263791, 0.5821012038868654, 0.5241145998794839, 0.5588714034907812, 0.55811242496992, 0.538444584632759, 0.49074284173933863, 0.5269374812858693, 0.5001027514352068, 0.4860540976435501, 0.4846060569735541, 0.47699058919713117, 0.4975772683911689, 0.46135938093528983, 0.5107677018667106, 0.4843961415083512, 0.482020750549269, 0.4359900189976268, 0.5232339013313901, 0.44253537163724566, 0.4616076604426524, 0.4462019301349332, 0.41893516632093897, 0.4465972022240206, 0.4792377071350998, 0.4374889888131594, 0.45201213525195544, 0.44779663920155716, 0.4200027502348211, 0.39547475684997213, 0.3773042645390236, 0.39984166190244147, 0.40783862186514813, 0.38938697006391443, 0.4370236170958288]

Validation loss [1.941353440284729, 1.9326664209365845, 1.9230741262435913, 1.906767725944519, 1.8673450946807861, 1.8254880905151367, 1.8243778944015503, 1.834565281867981, 1.8005731105804443, 1.758051872253418, 1.6952531337738037, 1.6192845106124878, 1.597978115081787, 1.618321180343628, 1.510898232460022, 1.4769630432128906, 1.4720765352249146, 1.5133638381958008, 1.4879769086837769, 1.4075047969818115, 1.417782187461853, 1.491970181465149, 1.493882179260254, 1.3582769632339478, 1.3520724773406982, 1.4513332843780518, 1.3643676042556763, 1.3326712846755981, 1.3395394086837769, 1.4216059446334839, 1.448067307472229, 1.3646866083145142, 1.3529545068740845, 1.3730851411819458, 1.3900043964385986, 1.3563306331634521, 1.288567304611206, 1.3437985181808472, 1.3887593746185303, 1.3970637321472168, 1.2989941835403442, 1.2722628116607666, 1.300093173980713, 1.312845230102539, 1.2833530902862549, 1.2524346113204956, 1.2187097072601318, 1.2770277261734009, 1.3246965408325195, 1.305100440979004, 1.2240161895751953, 1.2624692916870117, 1.2741140127182007, 1.2338136434555054, 1.2879449129104614, 1.3630545139312744, 1.3452415466308594, 1.2495607137680054, 1.207704782485962, 1.2548980712890625, 1.261459231376648, 1.2430720329284668, 1.241590142250061, 1.2565717697143555, 1.2596168518066406, 1.283364176750183, 1.2675390243530273, 1.2763911485671997, 1.293200135231018, 1.3862439393997192, 1.378562569618225, 1.2820215225219727, 1.263411045074463, 1.3086475133895874, 1.3797192573547363, 1.333085060119629, 1.2488505840301514, 1.2548880577087402, 1.2409805059432983, 1.3154847621917725, 1.317940354347229, 1.2828279733657837, 1.2019362449645996, 1.1667801141738892, 1.2015769481658936, 1.2578901052474976, 1.1954364776611328, 1.2042115926742554, 1.2374027967453003, 1.2446227073669434, 1.2247856855392456, 1.1631170511245728, 1.1937073469161987, 1.225448727607727, 1.2505171298980713, 1.2270811796188354, 1.181222915649414, 1.1254228353500366, 1.120211124420166, 1.1780518293380737, 1.2758187055587769, 1.2152159214019775, 1.185584545135498, 1.2999093532562256, 1.2765496969223022, 1.3377960920333862, 1.3276464939117432, 1.2494627237319946, 1.3369868993759155, 1.3341176509857178, 1.3626877069473267, 1.366310715675354, 1.3997929096221924, 1.3455983400344849, 1.399423599243164, 1.3826923370361328, 1.3208177089691162, 1.3448982238769531, 1.4141409397125244, 1.420206904411316, 1.4277892112731934, 1.3991554975509644, 1.384900450706482, 1.426216959953308, 1.4011995792388916, 1.3880977630615234, 1.4604344367980957, 1.4617729187011719, 1.433940052986145, 1.3706386089324951, 1.3520463705062866, 1.3932979106903076, 1.398037314414978, 1.3492299318313599, 1.3312729597091675, 1.3667629957199097, 1.4452203512191772, 1.4749083518981934, 1.462048888206482, 1.4531303644180298, 1.4800976514816284, 1.3871160745620728, 1.3420438766479492, 1.3612644672393799, 1.3643028736114502, 1.3754849433898926, 1.4216872453689575, 1.4871398210525513, 1.4105101823806763]

Text accuracy 0.6045197745164236
Test loss 1.4989932135673567


************ Training con Dropout e 6 hiden layer LSTM bidirezionali.*******************


Model accuracy [0.13871635512041997, 0.16149068224257318, 0.18840579648442396, 0.1614906830138548, 0.1884057974408132, 0.21739130582868682, 0.2256728768595504, 0.2339544507287304, 0.24016562894017554, 0.2691511407525396, 0.3167701880013721, 0.3209109730231836, 0.31055900405159154, 0.30848861317580284, 0.3064182218680964, 0.3229813684958108, 0.3374741184785499, 0.33954451549374043, 0.3312629398968896, 0.38302277710373606, 0.3788819882563676, 0.38509317029336965, 0.4099378888774856, 0.38302277235264115, 0.395445132786196, 0.43478261147226605, 0.42857142696716277, 0.4182194621913428, 0.4534161518449369, 0.4389233978515333, 0.45755693877952686, 0.4679089014574608, 0.4616977196055663, 0.46376811433776316, 0.47619047532664077, 0.46583850999549803, 0.46169772114812957, 0.4968944153677109, 0.5175983449193509, 0.484472048640498, 0.4865424460259037, 0.4699792967449804, 0.5238095246733593, 0.47204969240271527, 0.4761904770543116, 0.4886128418687461, 0.5051759829432327, 0.5134575602677545, 0.49482401742698245, 0.5093167689522848, 0.49482401514398877, 0.5051759858432517, 0.5238095227605808, 0.5134575558868748, 0.5445134629867585, 0.5134575539740963, 0.5362318793685786, 0.5362318831941356, 0.5424430591225871, 0.5258799199608789, 0.5238095292393465, 0.5072463801435309, 0.5445134591612016, 0.5569358169415476, 0.5527950309324956, 0.5755693531184463, 0.5424430631332516, 0.5734989656671481, 0.548654239987241, 0.5652173946362845, 0.5362318831941356, 0.5445134629867585, 0.5569358232352057, 0.5672877855429245, 0.5983436823384856, 0.5424430654162452, 0.5755693597823196, 0.5776397569826177, 0.6066252527523238, 0.5900621130352929, 0.5879917133668935, 0.6024844736539552, 0.5714285709349511, 0.5838509353791704, 0.5734989622118063, 0.5838509374770565, 0.5797101406083591, 0.5900621109374068, 0.6004140844749861, 0.6066252569480959, 0.6211180161245121, 0.6066252583055516, 0.5942028938613323, 0.610766042957148, 0.6335403700793012, 0.6231884094992532, 0.6169772272771437, 0.6169772311027005, 0.600414082006885, 0.5983436844363716, 0.6521739108221871, 0.6086956534079636, 0.621118014026626, 0.5838509273578415, 0.648033128638692, 0.6169772290048146, 0.6335403666239594, 0.6397515488460691, 0.6480331244429199, 0.6149068283491747]

Validation accuracy [0.1428571492433548, 0.11428571492433548, 0.10000000149011612, 0.12857143580913544, 0.18571428954601288, 0.2571428716182709, 0.27142858505249023, 0.22857142984867096, 0.2571428716182709, 0.24285714328289032, 0.2571428716182709, 0.2571428716182709, 0.2142857164144516, 0.2142857164144516, 0.2142857164144516, 0.2142857164144516, 0.18571428954601288, 0.20000000298023224, 0.24285714328289032, 0.3142857253551483, 0.34285715222358704, 0.3285714387893677, 0.34285715222358704, 0.3571428656578064, 0.3142857253551483, 0.3571428656578064, 0.3285714387893677, 0.3285714387893677, 0.4285714328289032, 0.4571428596973419, 0.44285714626312256, 0.3285714387893677, 0.34285715222358704, 0.3857142925262451, 0.3857142925262451, 0.4571428596973419, 0.4000000059604645, 0.3571428656578064, 0.3571428656578064, 0.3285714387893677, 0.41428571939468384, 0.3571428656578064, 0.3285714387893677, 0.4000000059604645, 0.4000000059604645, 0.4571428596973419, 0.4000000059604645, 0.3857142925262451, 0.4000000059604645, 0.3857142925262451, 0.3857142925262451, 0.41428571939468384, 0.4285714328289032, 0.41428571939468384, 0.4714285731315613, 0.44285714626312256, 0.44285714626312256, 0.4000000059604645, 0.3571428656578064, 0.4714285731315613, 0.44285714626312256, 0.3857142925262451, 0.44285714626312256, 0.41428571939468384, 0.3571428656578064, 0.3571428656578064, 0.4000000059604645, 0.4285714328289032, 0.3857142925262451, 0.37142857909202576, 0.3857142925262451, 0.4000000059604645, 0.4571428596973419, 0.4571428596973419, 0.3857142925262451, 0.4571428596973419, 0.44285714626312256, 0.4571428596973419, 0.41428571939468384, 0.4285714328289032, 0.4000000059604645, 0.41428571939468384, 0.3857142925262451, 0.37142857909202576, 0.41428571939468384, 0.4000000059604645, 0.37142857909202576, 0.3857142925262451, 0.3857142925262451, 0.4000000059604645, 0.4285714328289032, 0.3857142925262451, 0.3857142925262451, 0.3857142925262451, 0.4000000059604645, 0.4000000059604645, 0.3857142925262451, 0.4000000059604645, 0.41428571939468384, 0.3857142925262451, 0.4714285731315613, 0.4285714328289032, 0.41428571939468384, 0.37142857909202576, 0.44285714626312256, 0.44285714626312256, 0.4000000059604645, 0.4000000059604645, 0.4000000059604645, 0.4571428596973419]

Model loss [1.9455349798281494, 1.9432583699315231, 1.9341604847838914, 1.94002021741176, 1.9344906476220236, 1.9203828338757312, 1.9133751952623481, 1.8761611187186547, 1.8182315759777283, 1.7653194833739698, 1.7346176360704884, 1.6827209874463132, 1.6696015421154582, 1.6800141529513688, 1.6585587519789828, 1.6206973625759653, 1.5881203168667621, 1.5752007830463828, 1.5572931561657608, 1.5674038567651627, 1.5017780872605602, 1.5243970577761252, 1.4809412472489951, 1.4223858288356237, 1.423492851958265, 1.3814803453212445, 1.3565407784088799, 1.3594770125474003, 1.3301832515507257, 1.3225410125270394, 1.3130202207012454, 1.2777631223571966, 1.2400949144462128, 1.23308813720016, 1.292907458408032, 1.252978341426415, 1.222801633503126, 1.2000749868882616, 1.1790180803579327, 1.1934094690634844, 1.1809338035050385, 1.1993887646598105, 1.157002870340525, 1.2259330996321842, 1.2183030172411207, 1.1886895796280224, 1.1318642044166107, 1.1240060741610163, 1.231265525640168, 1.1205612524696018, 1.1580276748408442, 1.1406351826452568, 1.1266427141292248, 1.1305085075074348, 1.1011640604731954, 1.1148807264509655, 1.0834998785832408, 1.08441668563748, 1.09020924049875, 1.097205412560615, 1.0741409723556312, 1.1118063645333236, 1.0585024618460772, 1.0748732117145452, 1.0345279898949538, 1.0113231809983343, 1.059777627820554, 1.0361905196685475, 1.0157804285517391, 1.047191311854013, 1.0551375878770406, 1.072090334897209, 1.043249517494107, 0.985963621741743, 0.9733461019415293, 1.0319225171091146, 0.9582910292143654, 1.0105074101106475, 0.9624659495570892, 0.9584880953743344, 0.9922833161324448, 0.9805527528127035, 0.9652588777166963, 0.9310277093271291, 0.9618156388186027, 0.9401396944902946, 0.95714867608641, 0.9545622849316331, 0.9361894359006151, 0.9344433790408306, 0.9156694698531188, 0.9276811581714306, 0.9100402128375589, 0.9338322327497336, 0.8468950488305733, 0.9109119092949182, 0.9153097595240512, 0.9398004558269035, 0.9033317156213164, 0.9305896523329535, 0.8591429888585093, 0.899576152827182, 0.9092310259801261, 0.9322465753209763, 0.8552386211559145, 0.9344630006924426, 0.9013421723067637, 0.8327199339126208, 0.8334301886598022, 0.8611546995476906]

Validation loss [1.9427084922790527, 1.9426640272140503, 1.9390339851379395, 1.9345437288284302, 1.9239678382873535, 1.8987687826156616, 1.8561793565750122, 1.8211559057235718, 1.8410271406173706, 1.8447247743606567, 1.8254472017288208, 1.7923977375030518, 1.7698228359222412, 1.7684276103973389, 1.7797859907150269, 1.7721025943756104, 1.791811227798462, 1.7870267629623413, 1.7358499765396118, 1.6273778676986694, 1.5980558395385742, 1.5695797204971313, 1.5302585363388062, 1.541594386100769, 1.5764691829681396, 1.5647358894348145, 1.528530240058899, 1.5038920640945435, 1.4652515649795532, 1.3838801383972168, 1.4266058206558228, 1.45360267162323, 1.458343267440796, 1.3921582698822021, 1.3562581539154053, 1.3437292575836182, 1.4150974750518799, 1.430950403213501, 1.4359506368637085, 1.378975749015808, 1.3812700510025024, 1.38308846950531, 1.3288862705230713, 1.3495376110076904, 1.3952935934066772, 1.3440632820129395, 1.2968504428863525, 1.3291914463043213, 1.3881664276123047, 1.3431785106658936, 1.3511252403259277, 1.339521884918213, 1.3126323223114014, 1.3768750429153442, 1.3123449087142944, 1.2955617904663086, 1.3014583587646484, 1.3760552406311035, 1.2991782426834106, 1.243386149406433, 1.3401631116867065, 1.3416389226913452, 1.2925760746002197, 1.2781314849853516, 1.353804588317871, 1.4185025691986084, 1.3547399044036865, 1.364195704460144, 1.3598814010620117, 1.3343137502670288, 1.3469995260238647, 1.3896377086639404, 1.3752561807632446, 1.3740719556808472, 1.509857177734375, 1.3907012939453125, 1.3567156791687012, 1.5260810852050781, 1.4775792360305786, 1.4533456563949585, 1.5209789276123047, 1.4930087327957153, 1.4115632772445679, 1.4002925157546997, 1.4060840606689453, 1.401261329650879, 1.4064960479736328, 1.419947862625122, 1.5207581520080566, 1.449883222579956, 1.4289405345916748, 1.4800950288772583, 1.5347092151641846, 1.5214707851409912, 1.4679101705551147, 1.4720996618270874, 1.5156080722808838, 1.5168606042861938, 1.4414335489273071, 1.4124698638916016, 1.3504650592803955, 1.2903163433074951, 1.281078577041626, 1.3369032144546509, 1.3604193925857544, 1.331339955329895, 1.3355762958526611, 1.3589861392974854, 1.41471266746521, 1.3779411315917969]

Text accuracy 0.5254237293186834
Test loss 1.3457688335644997


