************ Training con DropoutAndL1 e 0 hiden layer LSTM bidirezionali.*******************


Model accuracy [0.15527950325984638, 0.34989647891210474, 0.48654243837478983, 0.5817805416342141, 0.6293995816021479, 0.6894409953930857, 0.7267080768788576, 0.7763975140470896, 0.8219461707594973, 0.8509316741803171, 0.8944099333222115, 0.9233954506878034, 0.9399585913920748, 0.9565217387602196, 0.9751552854265485, 0.9792960641547019, 0.9834368509041843, 0.9917184244031492, 0.9875776397515528, 0.9937888177778903, 0.9958592132505176, 0.9958592132505176, 0.9937888198757764, 0.9958592111526315, 0.9979296066252588, 0.9979296066252588, 0.9979296066252588, 0.9979296066252588, 0.9979296045273728, 0.9979296066252588, 0.9979296066252588, 0.9979296066252588, 0.9979296066252588, 0.9979296066252588, 0.9958592132505176, 0.9979296045273728, 0.9979296066252588, 0.9979296066252588, 0.9979296066252588, 0.9979296045273728, 0.9979296066252588, 0.9979296066252588, 0.9979296066252588, 0.9958592132505176, 0.9958592132505176, 0.9979296066252588, 0.9979296045273728, 0.9979296066252588, 0.9979296066252588, 0.9979296066252588, 0.9958592111526315, 0.9979296045273728, 0.9958592132505176, 0.9958592111526315, 0.979296072176031, 0.9544513474833645, 0.9668737119275838, 0.979296072176031, 0.9917184265010351, 0.989648033126294]

Validation accuracy [0.17142857611179352, 0.37142857909202576, 0.44285714626312256, 0.4714285731315613, 0.5142857432365417, 0.5714285969734192, 0.6714285612106323, 0.699999988079071, 0.6714285612106323, 0.6714285612106323, 0.6285714507102966, 0.6428571343421936, 0.6428571343421936, 0.6428571343421936, 0.6428571343421936, 0.6000000238418579, 0.5428571701049805, 0.6714285612106323, 0.6142857074737549, 0.6142857074737549, 0.6571428775787354, 0.6571428775787354, 0.6428571343421936, 0.6285714507102966, 0.6285714507102966, 0.6428571343421936, 0.6571428775787354, 0.6285714507102966, 0.6142857074737549, 0.6142857074737549, 0.6142857074737549, 0.6142857074737549, 0.6000000238418579, 0.6000000238418579, 0.6142857074737549, 0.6142857074737549, 0.6142857074737549, 0.6142857074737549, 0.6000000238418579, 0.6000000238418579, 0.6142857074737549, 0.6000000238418579, 0.6000000238418579, 0.6142857074737549, 0.6000000238418579, 0.6000000238418579, 0.6142857074737549, 0.6142857074737549, 0.6142857074737549, 0.6000000238418579, 0.6285714507102966, 0.6000000238418579, 0.5714285969734192, 0.6285714507102966, 0.5142857432365417, 0.6428571343421936, 0.6571428775787354, 0.6571428775787354, 0.6714285612106323, 0.7142857313156128]

Model loss [1.954591014617225, 1.8563168088348263, 1.7634963140230988, 1.649541820058171, 1.5071942744541367, 1.3428017441530404, 1.169629684886577, 0.9902031436469985, 0.8104785390768979, 0.6608957764278041, 0.5271778379414639, 0.4091383243446271, 0.3312429160064792, 0.2618711225487924, 0.19282025416568693, 0.1531680981564966, 0.11886545549885333, 0.09272953431366887, 0.08328812727492542, 0.06061659958483516, 0.04851660329856241, 0.04135550725163881, 0.03443448228171523, 0.02888081927724013, 0.02554223902801179, 0.023151703653220803, 0.020291848948869397, 0.018047086526225196, 0.017080439420467084, 0.015396377303122735, 0.015077371990952186, 0.013832168298817817, 0.012928107090093828, 0.012306631666147315, 0.011991668261171127, 0.011242111894161312, 0.010700470671505044, 0.010378527038539788, 0.01020791049560775, 0.00971905746753665, 0.009309581455853661, 0.008993983873229775, 0.008728735545152648, 0.008696678734729625, 0.008385024749814661, 0.008043855257085515, 0.008211062690840869, 0.007729851964699185, 0.007758312188590227, 0.007370165376644389, 0.007608504406722189, 0.007151395653222165, 0.00790572525811908, 0.011813975376989036, 0.0766175469965915, 0.14812671527359056, 0.08939550755310256, 0.09009474645490231, 0.05929400911458284, 0.048042844618452756]

Validation loss [1.904123306274414, 1.8341519832611084, 1.7518210411071777, 1.6467432975769043, 1.526353120803833, 1.407713770866394, 1.2861117124557495, 1.1647462844848633, 1.1044917106628418, 1.0623016357421875, 1.0787220001220703, 1.1533502340316772, 1.0817524194717407, 1.1293392181396484, 1.1678582429885864, 1.2035267353057861, 1.2507050037384033, 1.2501541376113892, 1.1923809051513672, 1.2065588235855103, 1.2400087118148804, 1.2783863544464111, 1.2870471477508545, 1.3000296354293823, 1.3243122100830078, 1.3511992692947388, 1.3966706991195679, 1.4473227262496948, 1.506640911102295, 1.5280513763427734, 1.5416159629821777, 1.5756421089172363, 1.6017481088638306, 1.6191520690917969, 1.6318010091781616, 1.6434111595153809, 1.6440585851669312, 1.6594750881195068, 1.67670738697052, 1.7105541229248047, 1.7447148561477661, 1.764404296875, 1.7651864290237427, 1.7491822242736816, 1.7516443729400635, 1.7532165050506592, 1.7554603815078735, 1.788028597831726, 1.8089443445205688, 1.8095343112945557, 1.7984833717346191, 1.8850841522216797, 1.8590953350067139, 1.8729450702667236, 2.254565477371216, 1.4492405652999878, 1.3169430494308472, 1.2638298273086548, 1.2217026948928833, 1.2458959817886353]

Text accuracy 0.6045197760317959
Test loss 1.4507096096620722


************ Training con DropoutAndL1 e 2 hiden layer LSTM bidirezionali.*******************


Model accuracy [0.13250517672386722, 0.21946169692043438, 0.25258798918862274, 0.29813664361803677, 0.30434782756781725, 0.3167701881864797, 0.339544515678848, 0.36853001872945274, 0.4306418226248976, 0.5093167687671772, 0.5258799208864169, 0.5031055909259472, 0.5300207026996968, 0.5983436890023589, 0.5859213283836965, 0.6004140844749861, 0.6625258839895513, 0.6438923373232224, 0.6915113874103712, 0.6790890292598101, 0.681159416340893, 0.6542443104905865, 0.6915113835848143, 0.7349896521054933, 0.6956521737896384, 0.720496894656748, 0.7349896423564934, 0.7556935823975636, 0.7598343729726029, 0.7556935865933357, 0.7453416193494146, 0.7432712175831291, 0.7763975102215327, 0.7826087008351865, 0.7784679053239447, 0.8012422310886422, 0.8095238101408349, 0.80952381051105, 0.7971014498923876, 0.819875773188984, 0.7950310568878616, 0.8053830170976943, 0.7826086983670852, 0.8219461686616112, 0.8136645989882033, 0.8033126261910544, 0.8302277404329051, 0.830227744258462, 0.8654244361950497, 0.8260869533132075, 0.840579705208725, 0.8467908874308347, 0.8405797073066111, 0.8364389240124704, 0.8385093135616547, 0.8612836389561371, 0.8633540424500933, 0.8447204982518656, 0.8923395395772551, 0.8923395437730272, 0.8716356079277291, 0.8592132515048388, 0.8861283615509176, 0.8881987629469877, 0.8881987531979879, 0.8674948187101454, 0.8985507301909089, 0.8902691507685012, 0.9213250573130621, 0.8799171835245799, 0.8881987591214309, 0.8964803284246236, 0.8923395500666853, 0.8964803326203956, 0.8985507238972508, 0.9047619019235883, 0.9213250471938471, 0.8964803263267375, 0.9151138708951804, 0.9109730866137993, 0.9213250534875053, 0.9026915089190624, 0.9254658440625445, 0.9213250471938471, 0.9151138754611676, 0.9233954405685882, 0.9109730904393561, 0.9026915064509611, 0.9254658339433295, 0.9275362294159567, 0.9275362315138428, 0.9047619082172464, 0.9316770224590973, 0.9130434796183252]

Validation accuracy [0.22857142984867096, 0.30000001192092896, 0.34285715222358704, 0.37142857909202576, 0.3857142925262451, 0.3857142925262451, 0.4000000059604645, 0.44285714626312256, 0.48571428656578064, 0.5714285969734192, 0.5571428537368774, 0.5714285969734192, 0.6142857074737549, 0.6285714507102966, 0.6000000238418579, 0.6000000238418579, 0.6142857074737549, 0.5857142806053162, 0.6428571343421936, 0.6142857074737549, 0.6285714507102966, 0.6142857074737549, 0.6428571343421936, 0.6857143044471741, 0.6857143044471741, 0.6428571343421936, 0.6428571343421936, 0.6857143044471741, 0.6571428775787354, 0.6285714507102966, 0.6714285612106323, 0.6428571343421936, 0.6714285612106323, 0.6857143044471741, 0.699999988079071, 0.6714285612106323, 0.6714285612106323, 0.6714285612106323, 0.7142857313156128, 0.7142857313156128, 0.7142857313156128, 0.699999988079071, 0.6857143044471741, 0.7285714149475098, 0.699999988079071, 0.7428571581840515, 0.6857143044471741, 0.699999988079071, 0.7285714149475098, 0.7142857313156128, 0.7142857313156128, 0.7285714149475098, 0.7285714149475098, 0.7142857313156128, 0.699999988079071, 0.699999988079071, 0.699999988079071, 0.7285714149475098, 0.7142857313156128, 0.7285714149475098, 0.699999988079071, 0.699999988079071, 0.7142857313156128, 0.699999988079071, 0.6714285612106323, 0.699999988079071, 0.6857143044471741, 0.7142857313156128, 0.699999988079071, 0.6857143044471741, 0.699999988079071, 0.7142857313156128, 0.6857143044471741, 0.6857143044471741, 0.7142857313156128, 0.7285714149475098, 0.7285714149475098, 0.6714285612106323, 0.6428571343421936, 0.6857143044471741, 0.699999988079071, 0.699999988079071, 0.7428571581840515, 0.7285714149475098, 0.699999988079071, 0.7285714149475098, 0.7285714149475098, 0.7285714149475098, 0.699999988079071, 0.7142857313156128, 0.7285714149475098, 0.7142857313156128, 0.7142857313156128, 0.6714285612106323]

Model loss [3.0950606091422324, 3.0357446028825907, 2.9727033043500057, 2.906093530773376, 2.8130523220599315, 2.711969501977135, 2.633109759099735, 2.5313189350546765, 2.444524330135211, 2.332585987343798, 2.2610480089365326, 2.1739897880988583, 2.067415906775812, 1.997017556836146, 1.975371255637696, 1.9047504424061588, 1.8209282275806056, 1.7993139973831966, 1.7364610776644562, 1.7095506793470363, 1.6683221300196203, 1.7090934682830274, 1.6246461870754234, 1.5816477628474896, 1.6177121435386548, 1.5679527328621528, 1.5039019685847912, 1.4895947845826238, 1.4367515633565298, 1.4674416442341933, 1.4891620605381872, 1.427370330068142, 1.4115228159333855, 1.3889478134072346, 1.3649601247740089, 1.331244845321213, 1.3126674744900215, 1.28776294548319, 1.3071862153138187, 1.2566310177185027, 1.334539244387214, 1.255571748899377, 1.3185849387206399, 1.2697729933582724, 1.2488568433816882, 1.2526494506476582, 1.1959827652135497, 1.1913542095918832, 1.1169051534147243, 1.194878163545028, 1.1488791400601406, 1.161462626595428, 1.1422422986099685, 1.1662090263998532, 1.1457747270355068, 1.1031876918445216, 1.0988307337336412, 1.1280342226936704, 1.0678182470132105, 1.033284964768783, 1.0602740402300659, 1.0686882524510102, 1.0277853740174825, 1.015885259300532, 1.0288679081460703, 1.0479674879808603, 1.0008888298927134, 1.012749039238284, 0.9479969010590026, 1.041967499083367, 1.0162626578941107, 0.9763420422871908, 1.001992716799118, 0.9723339512728263, 0.9789371781714461, 0.9348511766202702, 0.9118099442179899, 0.9580602653278327, 0.9245276462217296, 0.9204072570948867, 0.8979731498297697, 0.9492253186046213, 0.8961922183293487, 0.9033487635369627, 0.9020295366490603, 0.9007875608361285, 0.8928761594537376, 0.9292491472038916, 0.9114184854687124, 0.8807360242365804, 0.8591911934670948, 0.926506729599852, 0.8491066003191299, 0.8995776415858456]

Validation loss [3.0501511096954346, 2.9807496070861816, 2.885978937149048, 2.763341188430786, 2.633195161819458, 2.536586046218872, 2.4655826091766357, 2.376560926437378, 2.2540109157562256, 2.199117660522461, 2.142868995666504, 2.0884063243865967, 2.0564353466033936, 2.0171642303466797, 1.9607815742492676, 1.9246381521224976, 1.9176801443099976, 1.9246376752853394, 1.8442500829696655, 1.8929917812347412, 1.9070148468017578, 1.8919979333877563, 1.8127537965774536, 1.8232563734054565, 1.8119028806686401, 1.8258577585220337, 1.7863185405731201, 1.7917816638946533, 1.81265389919281, 1.8583101034164429, 1.8412444591522217, 1.8070228099822998, 1.7335034608840942, 1.7023849487304688, 1.7164274454116821, 1.6974576711654663, 1.7057716846466064, 1.7184075117111206, 1.7151446342468262, 1.6841031312942505, 1.6755893230438232, 1.7252131700515747, 1.7314764261245728, 1.646751880645752, 1.7090697288513184, 1.672331690788269, 1.6991026401519775, 1.6721529960632324, 1.672184944152832, 1.7086520195007324, 1.7072044610977173, 1.7216085195541382, 1.7267149686813354, 1.7572804689407349, 1.7157822847366333, 1.7203401327133179, 1.7760646343231201, 1.6778208017349243, 1.7279293537139893, 1.755074381828308, 1.7636537551879883, 1.7535041570663452, 1.7351293563842773, 1.739180088043213, 1.7408560514450073, 1.729556679725647, 1.7477740049362183, 1.7720680236816406, 1.8194395303726196, 1.7943989038467407, 1.7433713674545288, 1.7995415925979614, 1.8642265796661377, 1.7861597537994385, 1.7866483926773071, 1.7842328548431396, 1.7881311178207397, 1.8136740922927856, 1.8285518884658813, 1.8224326372146606, 1.8476639986038208, 1.8178001642227173, 1.8315073251724243, 1.8232938051223755, 1.8344351053237915, 1.8372191190719604, 1.836754560470581, 1.8594648838043213, 1.8445348739624023, 1.8101367950439453, 1.7958310842514038, 1.7885427474975586, 1.813240885734558, 1.8531880378723145]

Text accuracy 0.6214689292476676
Test loss 2.1161333181090276


************ Training con DropoutAndL1 e 4 hiden layer LSTM bidirezionali.*******************


Model accuracy [0.14906832390690442, 0.16563147090483402, 0.20703933895498083, 0.2256728772297656, 0.26293995834532236, 0.2815734987179932, 0.27122153357195805, 0.28778468094010284, 0.31055900633458516, 0.31884057773566393, 0.356107660393784, 0.3457556938902932, 0.37060041247440917, 0.40786749340485834, 0.39544513698196804, 0.42236024702804675, 0.43478261128715845, 0.4575569342135396, 0.44927536509545446, 0.4741200815816844, 0.4679089031851316, 0.4513457546446388, 0.49068322475405707, 0.49689440851873, 0.511387166522798, 0.5010351973660985, 0.4886128392155373, 0.5134575598975393, 0.5010352021171933, 0.5217391332113965, 0.5590062101311812, 0.49896479825302187, 0.5217391293858396, 0.5445134528675435, 0.5610766019633592, 0.5507246431109821, 0.5465838504380568, 0.592132500486591, 0.5817805357107712, 0.5734989601139203, 0.5590062124141748, 0.5631470033594294, 0.592132500486591, 0.5714285663689639, 0.5465838525359428, 0.6438923436168805, 0.5859213278283737, 0.6128364401574461, 0.6024844677305122, 0.569358183483653, 0.6169772196260298, 0.6149068342726176, 0.6252587948526654, 0.6293995812319327, 0.6542443104905865, 0.6480331223450339, 0.6211180102010692, 0.6376811571989988, 0.6335403704495164, 0.608695648224951, 0.6459627331660648, 0.6521739073668454, 0.6521739108221871, 0.6583850892187398, 0.6666666623474895, 0.6687370581903319, 0.6645962790919634, 0.6149068297066304, 0.6604554923424809, 0.6563146941163278, 0.6915113895082573, 0.6604554906148101, 0.6853002009924894, 0.7080745365061869, 0.6873705943672307, 0.6873705985630028, 0.7122153249833402, 0.7349896461820503, 0.689440988112187, 0.7370600416546776, 0.720496896754634, 0.7184265037501081, 0.6956521720619675, 0.7494824040010108, 0.7163561103753668, 0.7308488552367959, 0.7556935823975636, 0.7308488577048972, 0.7577639715765327, 0.7474120088985988, 0.7391304287357606, 0.7329192566328661, 0.7287784702535989, 0.7412008224807171, 0.74948240227334, 0.7536231869249364, 0.7412008287743752, 0.749482400175454, 0.7867494788229096, 0.7888198742955368, 0.7556935778315763, 0.7619047625217872, 0.7846790921120417, 0.7743271206723483, 0.8053830258594536, 0.7805383025242428, 0.7743271185744623, 0.8033126300166112, 0.7908902739639361, 0.7867494791931247, 0.7701863342930811, 0.8198757710910979, 0.8053830174679095, 0.7867494812910107, 0.7971014439689447, 0.8136646010860893, 0.8240165603086815, 0.8074534154086379, 0.8157349927331596, 0.7929606669684621, 0.809523812608936, 0.8385093219531989, 0.8260869596068656, 0.8343685310079444, 0.8115942077113482, 0.8343685289100584, 0.7991718436373441, 0.8053830275871245, 0.8136645905966591, 0.8467908853329487, 0.8157349923629444, 0.8385093219531989, 0.8322981397310892, 0.8364389268507869, 0.8467908954521637, 0.8592132494069528, 0.8467908895287207, 0.840579705208725, 0.8633540424500933, 0.8447204961539796, 0.8488612846311329, 0.8633540428203085, 0.8944099371477684, 0.8530020692827291, 0.8633540399819921, 0.8716356079277291, 0.850931672082431, 0.8592132536027249, 0.871635613851172, 0.8985507200716939, 0.8695652204764309, 0.8757763946772116, 0.8612836431519092, 0.8633540403522073, 0.8944099371477684, 0.8819875723333339, 0.9109730803201411, 0.8964803266969527, 0.8861283678445757, 0.9006211214677641, 0.9006211214677641, 0.8861283682147909, 0.8944099434414265, 0.9026915148425053, 0.8799171873501369, 0.8674948274719049, 0.9006211214677641, 0.8674948190803606, 0.9047619036512592, 0.8737060013024703, 0.8737060034003564, 0.8778467863242819, 0.8923395416751412, 0.900621119369878, 0.8716356079277291, 0.919254660112764, 0.9068323036898738, 0.8881987591214309, 0.9047619103151325, 0.8964803287948387, 0.9089026869453999, 0.9089026869453999, 0.9337474116380664, 0.8944099434414265, 0.9047619040214744, 0.8944099392456545, 0.9233954468622464, 0.8881987629469877, 0.900621113446435, 0.9089026949667289, 0.9254658423348737, 0.9130434736948823, 0.9151138712653956, 0.9151138674398387, 0.9130434799885404, 0.9068322935706586, 0.9109730862435841, 0.9089026869453999, 0.9130434736948823, 0.9151138712653956]

Validation accuracy [0.22857142984867096, 0.27142858505249023, 0.3142857253551483, 0.3285714387893677, 0.4000000059604645, 0.41428571939468384, 0.3857142925262451, 0.3571428656578064, 0.44285714626312256, 0.4571428596973419, 0.4714285731315613, 0.5142857432365417, 0.5285714268684387, 0.5428571701049805, 0.5, 0.5, 0.4571428596973419, 0.48571428656578064, 0.5, 0.5142857432365417, 0.5, 0.5, 0.5142857432365417, 0.5428571701049805, 0.5428571701049805, 0.5, 0.5285714268684387, 0.5285714268684387, 0.5428571701049805, 0.5428571701049805, 0.5571428537368774, 0.5285714268684387, 0.5285714268684387, 0.5571428537368774, 0.6142857074737549, 0.6000000238418579, 0.5857142806053162, 0.5428571701049805, 0.5857142806053162, 0.5857142806053162, 0.5714285969734192, 0.5857142806053162, 0.5285714268684387, 0.5571428537368774, 0.5428571701049805, 0.5, 0.5428571701049805, 0.5857142806053162, 0.5857142806053162, 0.5714285969734192, 0.5857142806053162, 0.5857142806053162, 0.5571428537368774, 0.5857142806053162, 0.6000000238418579, 0.5428571701049805, 0.5857142806053162, 0.5571428537368774, 0.6142857074737549, 0.5428571701049805, 0.5857142806053162, 0.5571428537368774, 0.6000000238418579, 0.6285714507102966, 0.5857142806053162, 0.5857142806053162, 0.5714285969734192, 0.6000000238418579, 0.5714285969734192, 0.6285714507102966, 0.6000000238418579, 0.6285714507102966, 0.6142857074737549, 0.5571428537368774, 0.5714285969734192, 0.6000000238418579, 0.6000000238418579, 0.6285714507102966, 0.6000000238418579, 0.6142857074737549, 0.6285714507102966, 0.6142857074737549, 0.5714285969734192, 0.6000000238418579, 0.6000000238418579, 0.6714285612106323, 0.6285714507102966, 0.6142857074737549, 0.6285714507102966, 0.6571428775787354, 0.6714285612106323, 0.6714285612106323, 0.6285714507102966, 0.6285714507102966, 0.6428571343421936, 0.6857143044471741, 0.6142857074737549, 0.6142857074737549, 0.6428571343421936, 0.6857143044471741, 0.6285714507102966, 0.6571428775787354, 0.6428571343421936, 0.6571428775787354, 0.6571428775787354, 0.6571428775787354, 0.6428571343421936, 0.6142857074737549, 0.6285714507102966, 0.6000000238418579, 0.6142857074737549, 0.6714285612106323, 0.6571428775787354, 0.6285714507102966, 0.6571428775787354, 0.6714285612106323, 0.6571428775787354, 0.6571428775787354, 0.6571428775787354, 0.6285714507102966, 0.6714285612106323, 0.6857143044471741, 0.6714285612106323, 0.6714285612106323, 0.6857143044471741, 0.6571428775787354, 0.6714285612106323, 0.6714285612106323, 0.6571428775787354, 0.6857143044471741, 0.699999988079071, 0.6714285612106323, 0.699999988079071, 0.6857143044471741, 0.7285714149475098, 0.699999988079071, 0.6714285612106323, 0.6571428775787354, 0.7142857313156128, 0.6857143044471741, 0.7142857313156128, 0.7285714149475098, 0.6857143044471741, 0.7142857313156128, 0.699999988079071, 0.7571428418159485, 0.7428571581840515, 0.7571428418159485, 0.7571428418159485, 0.7428571581840515, 0.7285714149475098, 0.7428571581840515, 0.7285714149475098, 0.6714285612106323, 0.7285714149475098, 0.699999988079071, 0.699999988079071, 0.7142857313156128, 0.699999988079071, 0.699999988079071, 0.699999988079071, 0.6714285612106323, 0.7142857313156128, 0.7285714149475098, 0.7285714149475098, 0.699999988079071, 0.6285714507102966, 0.7285714149475098, 0.7428571581840515, 0.7142857313156128, 0.7571428418159485, 0.7428571581840515, 0.699999988079071, 0.7428571581840515, 0.7428571581840515, 0.7285714149475098, 0.7285714149475098, 0.699999988079071, 0.7142857313156128, 0.699999988079071, 0.6857143044471741, 0.6857143044471741, 0.6857143044471741, 0.7142857313156128, 0.6857143044471741, 0.6857143044471741, 0.6857143044471741, 0.699999988079071, 0.7285714149475098, 0.7142857313156128, 0.7142857313156128, 0.7285714149475098, 0.699999988079071, 0.7142857313156128, 0.699999988079071, 0.7142857313156128, 0.7285714149475098, 0.6857143044471741, 0.7142857313156128, 0.699999988079071]

Model loss [3.876219018892719, 3.7976116566430953, 3.71694961245756, 3.6289507612184955, 3.511334438501678, 3.3854214444170334, 3.3354132599958968, 3.2600828663409374, 3.1858361517667277, 3.1498781114384746, 3.0324192111289774, 2.9757385120628785, 2.905216189891902, 2.8339888980423193, 2.7581383031841145, 2.7332572068240086, 2.616229009924468, 2.5780965556269106, 2.5566357737002163, 2.5121726180208888, 2.502757303956626, 2.473930077029558, 2.364844472265145, 2.4084695713367026, 2.328199671415562, 2.3360035424400314, 2.306713887129758, 2.316567081842363, 2.269562512451077, 2.2670982545453815, 2.2001851118376043, 2.231108583031727, 2.207510166780302, 2.1233855552554872, 2.0852435257123862, 2.097690515143037, 2.074371624190368, 2.0213191869589604, 1.9982982565403973, 2.008235035475737, 2.029627881928754, 2.0149449862802005, 2.0008902475700614, 1.9431115899767195, 2.0228147277180453, 1.9034978257449764, 1.9734219784075182, 1.9176218776229006, 1.8956584343011829, 1.9098164783501477, 1.8856216353165685, 1.8494627265949921, 1.8495248158772786, 1.8420218873468246, 1.7522398435797997, 1.792532069589287, 1.8118668723057023, 1.774923056549167, 1.7833236655833558, 1.7645760132906105, 1.7575598422044552, 1.764248332128268, 1.753837393677753, 1.712222499383409, 1.7314726874448252, 1.7129540914827746, 1.6683488563474413, 1.721419195951142, 1.6749290398189, 1.6509200299995532, 1.6429256533984071, 1.6541272759684371, 1.6568476097430749, 1.5625494930808341, 1.6143380554072853, 1.591431719175777, 1.612166550588904, 1.4823232442449092, 1.562369005280252, 1.4696670220258568, 1.5559589640694376, 1.5074597224438906, 1.5556351094512466, 1.4716500201827498, 1.5142162112715822, 1.4889927633554052, 1.480431922721073, 1.4935656968604456, 1.473072253892634, 1.4640667823530873, 1.4815895325402049, 1.4605741609450946, 1.469193827044643, 1.4513994911936252, 1.4546785130017046, 1.3992312383947905, 1.4813563031439456, 1.421383023508834, 1.3929625312734095, 1.3813550361194966, 1.4100748142593889, 1.3826549448088337, 1.362156685835086, 1.3941121234656861, 1.3393434263904642, 1.3772952919420989, 1.3242884425149448, 1.3101829208942675, 1.3744955946446453, 1.3678447630094446, 1.4018293777114363, 1.3039216711407615, 1.3151890666341683, 1.3068600764679366, 1.302337790621487, 1.2835166873892394, 1.2586107449008317, 1.2801576282667078, 1.2834335891356379, 1.3135229835352296, 1.257593624093271, 1.2549011026109969, 1.274048406144847, 1.2306948855796955, 1.2769538823121822, 1.2340011016675898, 1.2448119058372071, 1.2596844370567528, 1.2452890643421908, 1.1773616539518779, 1.2374278055214734, 1.1811048833973412, 1.1992467064294756, 1.194236429581731, 1.176517002577614, 1.1398304570042075, 1.191678669882117, 1.154836075893347, 1.1264085485821678, 1.1746971646697872, 1.1952233509494157, 1.147046312782335, 1.1128438459420056, 1.1699230369820606, 1.135137809236104, 1.1223412705257565, 1.1479268434378425, 1.1357890424274264, 1.1286269428813926, 1.0528113318773036, 1.14267146932906, 1.0954454594270537, 1.1106907622907967, 1.1213892853778342, 1.077455729431247, 1.0600324607537153, 1.0475439062770109, 1.0547476955082105, 1.0553208633979656, 1.0287062610898698, 1.0474552296210027, 1.0587008922490027, 1.0541060969202662, 1.0255499611730161, 1.061025599515216, 1.072296488852728, 1.031179558292926, 1.0745594390430806, 1.0309733014175857, 1.053351682905825, 1.0524553443087308, 1.0853100057467664, 1.020431279395678, 0.9990021335905876, 1.0598791603222644, 0.9818448188635627, 1.0170104636909059, 1.044251553020122, 0.9995780076299395, 1.00735283502634, 0.9961402465591273, 0.9651092174877538, 0.9323715280055013, 1.0017367204030354, 0.9982332647710607, 0.9953465021174887, 0.9419809509508358, 1.034409969242957, 1.0057885715926902, 0.9845297926454564, 0.9451258692188539, 0.9358402892916345, 0.9631444952502755, 0.9587375735150607, 0.9162598026465185, 0.9377091813284911, 0.9384849577463439, 0.9235085626566633, 0.938583593314232, 0.9659480067513744]

Validation loss [3.822117805480957, 3.7320168018341064, 3.6282031536102295, 3.4892992973327637, 3.309781074523926, 3.191190719604492, 3.130385637283325, 3.1373112201690674, 3.039849042892456, 2.966871500015259, 2.864001750946045, 2.7635302543640137, 2.709712505340576, 2.6684305667877197, 2.606011390686035, 2.565891981124878, 2.5561671257019043, 2.512255907058716, 2.522780656814575, 2.5010921955108643, 2.4379971027374268, 2.4376392364501953, 2.5134313106536865, 2.42291259765625, 2.410773754119873, 2.4636611938476562, 2.4492595195770264, 2.355780839920044, 2.3040454387664795, 2.2587156295776367, 2.243239402770996, 2.2915897369384766, 2.2796857357025146, 2.2411277294158936, 2.2750332355499268, 2.2357571125030518, 2.2287182807922363, 2.2130279541015625, 2.182213306427002, 2.1786746978759766, 2.1740875244140625, 2.139331102371216, 2.1687145233154297, 2.176731824874878, 2.180365562438965, 2.2232136726379395, 2.2022812366485596, 2.093144416809082, 2.079390048980713, 2.1255524158477783, 2.127277374267578, 2.0881731510162354, 2.134525775909424, 2.0892138481140137, 2.1125314235687256, 2.149141311645508, 2.0905635356903076, 2.030665636062622, 2.0496644973754883, 2.0787301063537598, 2.0444395542144775, 2.0204107761383057, 2.04394268989563, 2.10829496383667, 2.1346652507781982, 2.0688302516937256, 2.1102423667907715, 2.081007480621338, 2.067713975906372, 2.055131673812866, 2.070838212966919, 2.007464647293091, 1.9887281656265259, 2.056182622909546, 2.058746814727783, 1.9745197296142578, 1.9552383422851562, 1.9986156225204468, 2.009181022644043, 2.0412144660949707, 2.0304224491119385, 2.0413804054260254, 2.0186808109283447, 2.02553391456604, 2.0778353214263916, 2.0006234645843506, 2.015695333480835, 1.9897574186325073, 1.956443190574646, 1.9001789093017578, 1.890989899635315, 1.8819658756256104, 1.9182668924331665, 1.979785442352295, 1.9503207206726074, 1.9443176984786987, 2.0385701656341553, 2.0100855827331543, 1.9797332286834717, 1.9327276945114136, 1.9847568273544312, 1.9876532554626465, 2.024275302886963, 1.9883753061294556, 1.9706940650939941, 2.004277467727661, 1.979758381843567, 2.052422046661377, 2.0219714641571045, 2.0230681896209717, 2.0036091804504395, 1.950137734413147, 1.9182202816009521, 2.009279727935791, 1.969565510749817, 1.891197919845581, 1.9354373216629028, 1.9108766317367554, 1.9242826700210571, 1.9387530088424683, 1.8819146156311035, 1.8419795036315918, 1.8792227506637573, 1.916944980621338, 1.8837958574295044, 1.9328585863113403, 1.8975801467895508, 1.914492130279541, 2.0070691108703613, 1.9418060779571533, 1.9363765716552734, 1.9667426347732544, 1.9230798482894897, 1.920177936553955, 1.8448277711868286, 1.9311455488204956, 1.9590765237808228, 1.946885585784912, 1.897335410118103, 1.94660484790802, 1.9116023778915405, 1.8617626428604126, 1.85712730884552, 1.8012871742248535, 1.8401652574539185, 1.8325800895690918, 1.8029539585113525, 1.7838414907455444, 1.792153239250183, 1.8228545188903809, 1.8210946321487427, 1.8083773851394653, 1.7912988662719727, 1.8878206014633179, 1.881877064704895, 1.869408369064331, 1.8344632387161255, 1.843802809715271, 1.8552162647247314, 1.84868586063385, 1.8411214351654053, 1.9131686687469482, 1.917924404144287, 1.8828147649765015, 1.873731255531311, 1.8854272365570068, 1.9744173288345337, 1.8527300357818604, 1.823714256286621, 1.851486325263977, 1.7948871850967407, 1.7903141975402832, 1.8781325817108154, 1.8487770557403564, 1.8681449890136719, 1.9378372430801392, 1.925645112991333, 1.894779920578003, 1.876812219619751, 1.898948073387146, 1.931500792503357, 1.9165047407150269, 1.9135875701904297, 1.879454493522644, 1.8559565544128418, 1.8694896697998047, 1.8961002826690674, 1.8920533657073975, 1.875881314277649, 1.8329308032989502, 1.8185944557189941, 1.7895228862762451, 1.8566975593566895, 1.8533085584640503, 1.8537452220916748, 1.8019609451293945, 1.7752041816711426, 1.8334790468215942, 1.7920230627059937, 1.817417025566101]

Text accuracy 0.6610169511730388
Test loss 2.177416879578499


************ Training con DropoutAndL1 e 6 hiden layer LSTM bidirezionali.*******************


Model accuracy [0.12215320889377199, 0.15734989586330594, 0.14492753697231442, 0.14285714168479477, 0.16977225574153798, 0.1759834370072584, 0.16563147071972645, 0.17805383115328124, 0.18840579821209483, 0.21739130468719, 0.229813663979248, 0.2732919234913575, 0.28364389036506354, 0.2795031032453659, 0.29192546617787324, 0.30227743302072796, 0.31677018436092275, 0.2981366459010304, 0.30227743036751914, 0.3291925446093699, 0.31262940180721244, 0.34161490485781715, 0.3209109730231836, 0.35196687191663073, 0.3643892359906349, 0.40372671066604043, 0.36231884261589364, 0.3726708077619288, 0.407867492664428, 0.4016563150083056, 0.42028985383841316, 0.412008281696904, 0.449275363182676, 0.4492753608996824, 0.4368530025640136, 0.43064182490789127, 0.44099378740071754, 0.4534161518449369, 0.4596273317840529, 0.47826086450560984, 0.46583851227849166, 0.4761904774245268, 0.4720496922176077, 0.4492753608996824, 0.49068322475405707, 0.4948240115035395, 0.4865424458407961, 0.5051759858432517, 0.5258799142225435, 0.5424430598630174, 0.4865424456556885, 0.5031055886429536, 0.5134575518762102, 0.5631469949678851, 0.5445134566931004, 0.5403726682159471, 0.5175983428214648, 0.5113871663376905, 0.5548654298604645, 0.5797101402381439, 0.5548654302306797, 0.5631469999040876, 0.5900621172310649, 0.5300206988741399, 0.590062111307622, 0.5652173940809617, 0.5507246371875392, 0.5817805420044293, 0.5879917171924505, 0.5424430654162452, 0.5590062145120609, 0.5755693555865475, 0.5797101478892577, 0.6066252604034377, 0.6107660412294771, 0.6045548712244685, 0.6169772230813716, 0.5900621176012801, 0.6149068360002885, 0.6045548607350383, 0.6770186316892968, 0.6397515488460691, 0.6625258759682223, 0.6335403666239594, 0.6708074473693011, 0.6459627306979635, 0.6273291966189509, 0.6625258801639944, 0.6418219502421393, 0.6708074529225289, 0.6542443066650296, 0.6211180164947273, 0.6749482375741251, 0.660455486419038, 0.6749482425103276, 0.6997929584412348, 0.6977225658069239, 0.6832298093454191, 0.7142857128048535, 0.6749482341187835, 0.689440991937744, 0.6853002072861476, 0.6956521758875245, 0.7018633500883051, 0.6956521716917524, 0.7142857124346383, 0.7474120109964849, 0.7370600441227788, 0.7184264953585638, 0.7432712200512304, 0.7225672821080462, 0.7122153194301123, 0.6832298156390773, 0.6811594184387791, 0.7122153253535553, 0.7349896458118352, 0.6894409915675288, 0.739130435399634, 0.7556935782017915, 0.7763975119492035, 0.7453416172515285, 0.7681159384502387, 0.739130439225191, 0.7619047625217872, 0.7598343674193752, 0.7577639774999757, 0.7681159384502387, 0.7681159468417829, 0.7474120127241557, 0.7826086907159715, 0.7660455429776115, 0.7784679095197168, 0.7826086920734271, 0.7846790854481683, 0.7556935782017915, 0.7888198763934228, 0.7826086983670852, 0.8074534171363088, 0.7888198763934228, 0.770186333922866, 0.7888198742955368, 0.7908902676702779, 0.8012422324460979, 0.7867494851165677, 0.8074534213320809, 0.8157349864395015, 0.8426501027792384, 0.7950310547899756, 0.8033126244633835, 0.7867494791931247, 0.80952381051105, 0.7971014477945015, 0.7991718369734707, 0.7722567251997211, 0.8115942080815634, 0.809523808413164, 0.8343685310079444, 0.8178053780865718, 0.8136645930647604, 0.8343685292802736, 0.8178053840100148, 0.8157349910054889, 0.8426501087026813, 0.819875773188984, 0.8136645934349755, 0.8053830216636816, 0.8426501045069092, 0.8385093219531989, 0.8115942077113482, 0.8405797132300541, 0.8302277484542341, 0.8674948253740188, 0.8530020671848432, 0.8488612888269049, 0.8302277484542341, 0.8633540365266503, 0.840579705208725, 0.8281573484156196, 0.8612836490753522, 0.8364389243826856, 0.840579705208725, 0.8322981397310892, 0.8530020696529443, 0.8447204936858783, 0.8509316825718614, 0.8447204961539796, 0.8592132515048388, 0.8571428602279837, 0.840579714957725, 0.8260869533132075, 0.8426501066047952, 0.869565214552988, 0.8550724626574704, 0.8571428602279837, 0.8447204961539796, 0.8654244260758347, 0.8322981376332033, 0.8467908950819485, 0.8695652183785448, 0.8778467859540667]

Validation accuracy [0.15714286267757416, 0.15714286267757416, 0.15714286267757416, 0.15714286267757416, 0.15714286267757416, 0.15714286267757416, 0.15714286267757416, 0.20000000298023224, 0.3142857253551483, 0.34285715222358704, 0.37142857909202576, 0.37142857909202576, 0.3571428656578064, 0.3571428656578064, 0.3571428656578064, 0.3571428656578064, 0.3571428656578064, 0.3571428656578064, 0.3571428656578064, 0.4000000059604645, 0.4000000059604645, 0.4285714328289032, 0.4571428596973419, 0.44285714626312256, 0.4285714328289032, 0.5, 0.44285714626312256, 0.48571428656578064, 0.5142857432365417, 0.48571428656578064, 0.48571428656578064, 0.5428571701049805, 0.5571428537368774, 0.48571428656578064, 0.5428571701049805, 0.5, 0.5, 0.5285714268684387, 0.5285714268684387, 0.5285714268684387, 0.5428571701049805, 0.5714285969734192, 0.5428571701049805, 0.48571428656578064, 0.5285714268684387, 0.5571428537368774, 0.5142857432365417, 0.48571428656578064, 0.5571428537368774, 0.5571428537368774, 0.5714285969734192, 0.5571428537368774, 0.5, 0.5571428537368774, 0.5857142806053162, 0.5571428537368774, 0.5142857432365417, 0.4714285731315613, 0.5571428537368774, 0.5857142806053162, 0.5571428537368774, 0.6428571343421936, 0.5285714268684387, 0.4714285731315613, 0.6000000238418579, 0.6000000238418579, 0.5428571701049805, 0.5714285969734192, 0.5714285969734192, 0.6000000238418579, 0.6000000238418579, 0.5857142806053162, 0.6142857074737549, 0.6000000238418579, 0.6142857074737549, 0.5857142806053162, 0.6000000238418579, 0.5714285969734192, 0.6000000238418579, 0.6142857074737549, 0.6142857074737549, 0.6000000238418579, 0.6571428775787354, 0.6142857074737549, 0.6000000238418579, 0.6285714507102966, 0.6000000238418579, 0.6428571343421936, 0.6571428775787354, 0.6285714507102966, 0.6428571343421936, 0.6428571343421936, 0.6285714507102966, 0.6000000238418579, 0.6142857074737549, 0.6285714507102966, 0.6142857074737549, 0.6285714507102966, 0.6142857074737549, 0.6000000238418579, 0.6000000238418579, 0.6428571343421936, 0.6428571343421936, 0.6285714507102966, 0.6428571343421936, 0.6571428775787354, 0.6571428775787354, 0.6000000238418579, 0.7142857313156128, 0.6857143044471741, 0.6000000238418579, 0.699999988079071, 0.6571428775787354, 0.6285714507102966, 0.6714285612106323, 0.6285714507102966, 0.6142857074737549, 0.6857143044471741, 0.6857143044471741, 0.6571428775787354, 0.6571428775787354, 0.6714285612106323, 0.6571428775787354, 0.6571428775787354, 0.5857142806053162, 0.6571428775787354, 0.6714285612106323, 0.6857143044471741, 0.6142857074737549, 0.6142857074737549, 0.6571428775787354, 0.6714285612106323, 0.6571428775787354, 0.6714285612106323, 0.6428571343421936, 0.6714285612106323, 0.7428571581840515, 0.6571428775787354, 0.6714285612106323, 0.699999988079071, 0.699999988079071, 0.7142857313156128, 0.7285714149475098, 0.6857143044471741, 0.6857143044471741, 0.699999988079071, 0.6571428775787354, 0.6714285612106323, 0.699999988079071, 0.7142857313156128, 0.6714285612106323, 0.699999988079071, 0.6857143044471741, 0.6714285612106323, 0.6285714507102966, 0.699999988079071, 0.699999988079071, 0.6714285612106323, 0.7142857313156128, 0.7142857313156128, 0.699999988079071, 0.699999988079071, 0.699999988079071, 0.699999988079071, 0.6285714507102966, 0.699999988079071, 0.7285714149475098, 0.6428571343421936, 0.6142857074737549, 0.699999988079071, 0.7285714149475098, 0.7428571581840515, 0.7142857313156128, 0.7428571581840515, 0.7285714149475098, 0.7428571581840515, 0.7714285850524902, 0.7142857313156128, 0.6857143044471741, 0.7142857313156128, 0.7285714149475098, 0.7142857313156128, 0.7428571581840515, 0.7428571581840515, 0.7142857313156128, 0.7428571581840515, 0.7428571581840515, 0.6714285612106323, 0.7714285850524902, 0.7142857313156128, 0.699999988079071, 0.7428571581840515, 0.7285714149475098, 0.699999988079071, 0.6857143044471741, 0.7428571581840515, 0.6714285612106323, 0.6428571343421936, 0.699999988079071, 0.7142857313156128]

Model loss [4.667447670646336, 4.554058603124836, 4.452529424465961, 4.352590579670656, 4.256423697461746, 4.1613664913374935, 4.068047198696413, 3.980273980284823, 3.883277384637552, 3.782442970552306, 3.6864748864934063, 3.544596304804642, 3.4333955501177296, 3.393086883098689, 3.3064542562078, 3.235102131253197, 3.1687168709733227, 3.105147998525489, 3.0552463131661742, 2.989644067874853, 2.9847503310651757, 2.9347039315517893, 2.8866593472459057, 2.835315087814015, 2.784971606410562, 2.743599700631562, 2.70236957739599, 2.696748273466438, 2.6299119780522697, 2.578831534454788, 2.5188842624364187, 2.4944849976841708, 2.455400009826597, 2.464718667123135, 2.442986790437876, 2.3474762202790065, 2.3384670954560147, 2.3043803151843463, 2.2525876294011655, 2.224161732024041, 2.2194105236179835, 2.17171647632591, 2.1473321944290067, 2.1503909966960455, 2.0878210674901925, 2.1077029018915465, 2.0984321548825218, 2.0786673213137354, 2.0610095980744925, 2.065025339462249, 2.06561911871221, 2.0736451331626307, 2.0593538168300998, 2.0011831786074747, 1.9979787430654647, 1.9688863887549928, 2.004739977064587, 1.9931193706164942, 1.915187728824576, 1.8765838227657057, 1.9059725523488615, 1.9182305170635752, 1.849814690418125, 1.8774604227231897, 1.8564972183965995, 1.8833689635338002, 1.8794402481359478, 1.8226347798886506, 1.823049547262567, 1.9225494291471399, 1.8629389315164855, 1.8184536159902378, 1.8077018976705168, 1.844783283908915, 1.7818281267987521, 1.7842328874220759, 1.7487795098721364, 1.8064403978193768, 1.7590937693420157, 1.7704474121393872, 1.7144473317247, 1.7280209474188448, 1.7015108864746726, 1.7417945392877172, 1.6960687180730374, 1.688664966982097, 1.7456247697952618, 1.6926091225744528, 1.6799032500565176, 1.6792737603434371, 1.713370064030523, 1.7480809528141534, 1.6361171096008016, 1.6505850173424983, 1.6235975972367123, 1.595818092610772, 1.5928640735815771, 1.5940142334371372, 1.5571267577678767, 1.636170280399283, 1.5672797164561585, 1.5688304644440518, 1.5946310348885893, 1.5884222490693718, 1.5631189422824614, 1.5325132220921802, 1.5175195759621218, 1.5092523833486111, 1.5180969216068338, 1.5055281614911729, 1.521677717905854, 1.5751522426526245, 1.622685570647751, 1.5916523940814948, 1.5421477348908135, 1.5023925469775625, 1.6359488835739546, 1.5187864997125313, 1.4657247251605394, 1.4219007827727197, 1.432406032554358, 1.459019562719278, 1.462628600266656, 1.4575703277350953, 1.4555189819316192, 1.4369427913464374, 1.4511381619712087, 1.4134099577277837, 1.4446696319441865, 1.401569696440213, 1.386150492644458, 1.3952700825211424, 1.3511672264300518, 1.3929519863108917, 1.4435641025164112, 1.3234927989928125, 1.3697154820582387, 1.3072403059736295, 1.3480940822735583, 1.4040615210621994, 1.3680242961484699, 1.3395636970212002, 1.3307427224658785, 1.3447848254849453, 1.3168207409465782, 1.2986579674371281, 1.2965690462732413, 1.4169153621724921, 1.3014219604417157, 1.3612047337597202, 1.3565598918784478, 1.3391063470030917, 1.3231012369534985, 1.3454793898955635, 1.2620571753006298, 1.3152463053571017, 1.2678196926294647, 1.2601006502443712, 1.3150109936238323, 1.246771778625978, 1.284643296376025, 1.2733255363152387, 1.2497967451995944, 1.2783436449418157, 1.2761708678172488, 1.2696593928287736, 1.2080385731860965, 1.243192519954026, 1.28235706063778, 1.227726754194461, 1.2524203597635464, 1.1741408859967692, 1.208169973168067, 1.196626719727526, 1.2181361215208382, 1.192242123325419, 1.2170097156587842, 1.2071974334262667, 1.1608939175773605, 1.2275704123218607, 1.2393777007642, 1.2285758409934509, 1.175635483941183, 1.2052534063410314, 1.198207241901453, 1.2212257323551376, 1.166109818109074, 1.1746623599998205, 1.2300955365656818, 1.243842577588731, 1.2228454933897062, 1.1446892936284003, 1.196750365429043, 1.2279776053399032, 1.1942486977725295, 1.1849012241600463, 1.210348074974234, 1.183221952021739, 1.1534431385450976, 1.1282484171059808]

Validation loss [4.593306064605713, 4.487688064575195, 4.385238170623779, 4.287242889404297, 4.189977645874023, 4.093527793884277, 3.9951932430267334, 3.8868582248687744, 3.7472329139709473, 3.5734410285949707, 3.4110183715820312, 3.309771776199341, 3.244922637939453, 3.1792075634002686, 3.1339731216430664, 3.1033875942230225, 3.0481696128845215, 3.014895439147949, 2.957843065261841, 2.8712027072906494, 2.8082478046417236, 2.7781012058258057, 2.705151319503784, 2.729278326034546, 2.7108235359191895, 2.605532169342041, 2.6538660526275635, 2.5437731742858887, 2.532183885574341, 2.5117366313934326, 2.5015769004821777, 2.4233322143554688, 2.3711769580841064, 2.508941173553467, 2.2988593578338623, 2.384514570236206, 2.330703020095825, 2.3230340480804443, 2.30940318107605, 2.290304183959961, 2.3077054023742676, 2.2646031379699707, 2.274000883102417, 2.317469358444214, 2.2849202156066895, 2.3463685512542725, 2.3318943977355957, 2.318319082260132, 2.2896828651428223, 2.2378766536712646, 2.225889205932617, 2.1877541542053223, 2.2480764389038086, 2.2877798080444336, 2.212339162826538, 2.2095305919647217, 2.247389793395996, 2.222419023513794, 2.141709327697754, 2.15143084526062, 2.254486322402954, 2.147995710372925, 2.176100730895996, 2.220639944076538, 2.141474485397339, 2.1108040809631348, 2.171792984008789, 2.154540777206421, 2.219825506210327, 2.1619436740875244, 2.2135214805603027, 2.1744847297668457, 2.12786602973938, 2.1672613620758057, 2.171306610107422, 2.168991804122925, 2.1184349060058594, 2.1028828620910645, 2.1110687255859375, 2.1054251194000244, 2.096189022064209, 2.0845839977264404, 2.004448175430298, 2.0670857429504395, 2.0766282081604004, 2.027367353439331, 2.077371835708618, 2.108323812484741, 2.0509421825408936, 2.053837299346924, 2.0143184661865234, 2.0339910984039307, 1.9895849227905273, 2.042120933532715, 1.9880411624908447, 1.9531739950180054, 1.97037935256958, 2.0203146934509277, 2.00726318359375, 2.0330562591552734, 1.9960452318191528, 1.9520617723464966, 1.9569076299667358, 2.0017905235290527, 1.9709537029266357, 1.9493471384048462, 1.926910638809204, 1.9248136281967163, 1.8946317434310913, 1.963188648223877, 2.038864850997925, 1.8428480625152588, 2.0626792907714844, 2.0158679485321045, 1.917564034461975, 2.0800487995147705, 2.095513343811035, 1.9707634449005127, 1.965201735496521, 1.9744164943695068, 1.9806867837905884, 1.9765123128890991, 1.9602019786834717, 1.9122799634933472, 2.0294077396392822, 1.960334300994873, 1.9591151475906372, 1.9463087320327759, 2.0108072757720947, 1.9649957418441772, 1.9417003393173218, 1.9158941507339478, 1.9185994863510132, 1.9898674488067627, 2.0868890285491943, 1.9680825471878052, 1.919082760810852, 1.90975821018219, 1.9671233892440796, 1.8947371244430542, 1.8745571374893188, 1.8766248226165771, 1.8942660093307495, 1.8989351987838745, 1.8990046977996826, 1.8929593563079834, 2.0564775466918945, 1.9958823919296265, 1.8919050693511963, 1.8612772226333618, 1.9152467250823975, 1.947460651397705, 1.9583969116210938, 1.994545340538025, 1.9979532957077026, 1.8948798179626465, 1.910569667816162, 1.9615145921707153, 1.8789901733398438, 1.8302668333053589, 1.9019978046417236, 1.910625696182251, 1.8804644346237183, 1.9136546850204468, 2.0714950561523438, 1.9892945289611816, 1.8764686584472656, 2.0046772956848145, 2.074230194091797, 1.915856957435608, 1.8369405269622803, 1.8648743629455566, 1.9129717350006104, 1.895728349685669, 1.877288818359375, 1.8792511224746704, 1.8477047681808472, 1.9418470859527588, 1.9600253105163574, 2.001164674758911, 1.993984341621399, 2.091822624206543, 2.020347833633423, 1.9428777694702148, 1.9835013151168823, 1.9891127347946167, 1.9878084659576416, 2.0946390628814697, 1.9742258787155151, 1.9773262739181519, 1.999260663986206, 1.9547799825668335, 2.013502836227417, 2.064192533493042, 1.9501663446426392, 1.9385524988174438, 2.056307792663574, 2.155877113342285, 2.102200508117676, 1.9439469575881958]

Text accuracy 0.610169494219419
Test loss 2.2405263879204873


