
Dropout con 50
Training con Dropout e 0 hiden layer LSTM bidirezionali.


_________________________________________________________________
Layer (type)                 Output Shape              Param #   
=================================================================
embedding_1 (Embedding)      (None, 187, 300)          1393800   
_________________________________________________________________
lstm_1 (LSTM)                (None, 187, 50)           70200     
_________________________________________________________________
lstm_2 (LSTM)                (None, 50)                20200     
_________________________________________________________________
dense_1 (Dense)              (None, 7)                 357       
=================================================================
Total params: 1,484,557
Trainable params: 90,757
Non-trainable params: 1,393,800
_________________________________________________________________
None




Training con Dropout e 1 hiden layer LSTM bidirezionali.


_________________________________________________________________
Layer (type)                 Output Shape              Param #   
=================================================================
embedding_2 (Embedding)      (None, 187, 300)          1393800   
_________________________________________________________________
bidirectional_1 (Bidirection (None, 187, 100)          140400    
_________________________________________________________________
lstm_4 (LSTM)                (None, 187, 50)           30200     
_________________________________________________________________
lstm_5 (LSTM)                (None, 50)                20200     
_________________________________________________________________
dense_2 (Dense)              (None, 7)                 357       
=================================================================
Total params: 1,584,957
Trainable params: 191,157
Non-trainable params: 1,393,800
_________________________________________________________________
None




