
SensaNormalizer con 50
Training con SensaNormalizer e 0 hiden layer LSTM bidirezionali.


_________________________________________________________________
Layer (type)                 Output Shape              Param #   
=================================================================
embedding_1 (Embedding)      (None, 187, 300)          1393800   
_________________________________________________________________
lstm_1 (LSTM)                (None, 187, 50)           70200     
_________________________________________________________________
lstm_2 (LSTM)                (None, 50)                20200     
_________________________________________________________________
dense_1 (Dense)              (None, 7)                 357       
=================================================================
Total params: 1,484,557
Trainable params: 90,757
Non-trainable params: 1,393,800
_________________________________________________________________
None




Training con SensaNormalizer e 2 hiden layer LSTM bidirezionali.


_________________________________________________________________
Layer (type)                 Output Shape              Param #   
=================================================================
embedding_2 (Embedding)      (None, 187, 300)          1393800   
_________________________________________________________________
bidirectional_1 (Bidirection (None, 187, 100)          140400    
_________________________________________________________________
bidirectional_2 (Bidirection (None, 187, 100)          60400     
_________________________________________________________________
lstm_5 (LSTM)                (None, 187, 50)           30200     
_________________________________________________________________
lstm_6 (LSTM)                (None, 50)                20200     
_________________________________________________________________
dense_2 (Dense)              (None, 7)                 357       
=================================================================
Total params: 1,645,357
Trainable params: 251,557
Non-trainable params: 1,393,800
_________________________________________________________________
None




Training con SensaNormalizer e 4 hiden layer LSTM bidirezionali.


_________________________________________________________________
Layer (type)                 Output Shape              Param #   
=================================================================
embedding_3 (Embedding)      (None, 187, 300)          1393800   
_________________________________________________________________
bidirectional_3 (Bidirection (None, 187, 100)          140400    
_________________________________________________________________
bidirectional_4 (Bidirection (None, 187, 100)          60400     
_________________________________________________________________
bidirectional_5 (Bidirection (None, 187, 100)          60400     
_________________________________________________________________
bidirectional_6 (Bidirection (None, 187, 100)          60400     
_________________________________________________________________
lstm_11 (LSTM)               (None, 187, 50)           30200     
_________________________________________________________________
lstm_12 (LSTM)               (None, 50)                20200     
_________________________________________________________________
dense_3 (Dense)              (None, 7)                 357       
=================================================================
Total params: 1,766,157
Trainable params: 372,357
Non-trainable params: 1,393,800
_________________________________________________________________
None




Training con SensaNormalizer e 6 hiden layer LSTM bidirezionali.


_________________________________________________________________
Layer (type)                 Output Shape              Param #   
=================================================================
embedding_4 (Embedding)      (None, 187, 300)          1393800   
_________________________________________________________________
bidirectional_7 (Bidirection (None, 187, 100)          140400    
_________________________________________________________________
bidirectional_8 (Bidirection (None, 187, 100)          60400     
_________________________________________________________________
bidirectional_9 (Bidirection (None, 187, 100)          60400     
_________________________________________________________________
bidirectional_10 (Bidirectio (None, 187, 100)          60400     
_________________________________________________________________
bidirectional_11 (Bidirectio (None, 187, 100)          60400     
_________________________________________________________________
bidirectional_12 (Bidirectio (None, 187, 100)          60400     
_________________________________________________________________
lstm_19 (LSTM)               (None, 187, 50)           30200     
_________________________________________________________________
lstm_20 (LSTM)               (None, 50)                20200     
_________________________________________________________________
dense_4 (Dense)              (None, 7)                 357       
=================================================================
Total params: 1,886,957
Trainable params: 493,157
Non-trainable params: 1,393,800
_________________________________________________________________
None




