************ Training con DropoutAndL1 e 0 hiden layer LSTM bidirezionali.*******************


Model accuracy [0.204968943297246, 0.3084886148726224, 0.38716356194044, 0.4824016548955416, 0.5341614880917235, 0.5734989643096924, 0.6211180067457274, 0.6604554906148101, 0.62939958579792, 0.7142857170006256, 0.739130429476191, 0.761904756228129, 0.7805383074604453, 0.8136646010860893, 0.8488612787076899, 0.8695652166508739, 0.8840579702740624, 0.908902689043286, 0.8964803284246236, 0.9192546639383209, 0.9440993743160003, 0.9482401715549129, 0.9482401610654827, 0.950310564559439, 0.9648033185528425]

Validation accuracy [0.2571428716182709, 0.3142857253551483, 0.3571428656578064, 0.3857142925262451, 0.4285714328289032, 0.5142857432365417, 0.5571428537368774, 0.6000000238418579, 0.6285714507102966, 0.7142857313156128, 0.6571428775787354, 0.6714285612106323, 0.6857143044471741, 0.6714285612106323, 0.6714285612106323, 0.6857143044471741, 0.6571428775787354, 0.6428571343421936, 0.6571428775787354, 0.6857143044471741, 0.6571428775787354, 0.6571428775787354, 0.6714285612106323, 0.6428571343421936, 0.6285714507102966]

Model loss [2.3177330760481936, 2.242899593606005, 2.1600515822692934, 2.0687067237206374, 1.956328871087258, 1.8162859749843367, 1.6695041303555664, 1.5267313072153252, 1.4183117052536327, 1.2924533655431207, 1.1943740886684284, 1.1100661132646643, 1.0294679263857334, 0.9439199341009863, 0.8630656525955437, 0.7999662291682779, 0.7756015117864431, 0.6855462258893757, 0.670180999220775, 0.6416379326865786, 0.5762251124372146, 0.5744363602644168, 0.5435086868811345, 0.5316082826559094, 0.4908581348309606]

Validation loss [2.2752954959869385, 2.2142422199249268, 2.1435885429382324, 2.0506105422973633, 1.9304734468460083, 1.7777037620544434, 1.638852834701538, 1.5177829265594482, 1.4327452182769775, 1.3666980266571045, 1.3548370599746704, 1.3273975849151611, 1.32098388671875, 1.3189129829406738, 1.3141276836395264, 1.332916259765625, 1.3441225290298462, 1.3876157999038696, 1.4003808498382568, 1.3756563663482666, 1.405650019645691, 1.4016436338424683, 1.4462302923202515, 1.4819157123565674, 1.4941160678863525]

Text accuracy 0.610169494219419
Test loss 1.756918830386663


************ Training con DropoutAndL1 e 1 hiden layer LSTM bidirezionali.*******************


Model accuracy [0.20082815673287116, 0.34368530279854564, 0.3809523835438873, 0.4616977258992245, 0.4865424488642201, 0.5217391274730612, 0.5942028938613323, 0.6004140823771001, 0.6563146962142139, 0.6811594205366652, 0.7432712221491165, 0.7474120130943709, 0.819875777384756, 0.7991718478331161, 0.8322981359055324, 0.8695652170210891, 0.8799171877203521, 0.8840579685463915, 0.8923395437730272, 0.9275362273180707, 0.9358178029149216, 0.9399585896644039, 0.9254658381391015, 0.9358178050128075, 0.929606622790698]

Validation accuracy [0.27142858505249023, 0.3857142925262451, 0.4000000059604645, 0.4000000059604645, 0.44285714626312256, 0.5, 0.48571428656578064, 0.5285714268684387, 0.5571428537368774, 0.5571428537368774, 0.6428571343421936, 0.6142857074737549, 0.6285714507102966, 0.6428571343421936, 0.6714285612106323, 0.6285714507102966, 0.6571428775787354, 0.6285714507102966, 0.6857143044471741, 0.6714285612106323, 0.6428571343421936, 0.7285714149475098, 0.6857143044471741, 0.6571428775787354, 0.6714285612106323]

Model loss [2.8916331966471227, 2.8001776565922962, 2.7008655313132466, 2.5616436192214365, 2.410602163330615, 2.26903844472044, 2.0819277235193034, 1.9489277480305105, 1.808183974114017, 1.6940177785190242, 1.5880976962253421, 1.5057361858972111, 1.4295754156250884, 1.371378973650883, 1.3101752547250278, 1.2367149238507447, 1.1700792650751939, 1.112011454613806, 1.0866110941884928, 1.0523770674908877, 0.9941151643144912, 0.9902536400109838, 0.9863157110678237, 0.9570841562180292, 0.950223710102571]

Validation loss [2.8494791984558105, 2.75996732711792, 2.6423537731170654, 2.4921584129333496, 2.3540637493133545, 2.2185521125793457, 2.094822645187378, 2.00424861907959, 1.9245805740356445, 1.9003393650054932, 1.7798779010772705, 1.843563437461853, 1.7778443098068237, 1.7138804197311401, 1.6991976499557495, 1.7675374746322632, 1.7527176141738892, 1.7623178958892822, 1.7559303045272827, 1.7875621318817139, 1.8329885005950928, 1.7497360706329346, 1.7886067628860474, 1.911894679069519, 1.9438291788101196]

Text accuracy 0.5875706238261724
Test loss 2.095835901923099


